{
    "swagger": "2.0",
    "info": {
        "version": "0.0.1",
        "title": "API - Fuhrpark Management - Software Projekt WS 16/17"
    },
    "paths": {
        "/user": {
            "get": {
                "description": "Gets `User` objects.\nOptional query param of **size** determines\nsize of returned array\n",
                "parameters": [
                    {
                        "name": "size",
                        "in": "query",
                        "description": "Size of array",
                        "required": false,
                        "type": "number",
                        "format": "int32"
                    }
                ],
                "responses": {
                    "200": {
                        "description": "Successful response",
                        "schema": {
                            "title": "ArrayOfUsers",
                            "type": "array",
                            "items": {
                                "$ref": "#/definitions/User"
                            }
                        }
                    }
                }
            },
            "post": {
                "description": "Add a new `User`\n",
                "parameters": [
                    {
                        "name": "user",
                        "in": "body",
                        "description": "User object",
                        "required": false,
                        "schema": {
                            "$ref": "#/definitions/User"
                        }
                    }
                ],
                "responses": {
                    "200": {
                        "description": "Successful response"
                    },
                    "401": {
                        "description": "unauthorized access"
                    },
                    "405": {
                        "description": "invalid input"
                    }
                }
            }
        },
        "/user/{userID}": {
            "get": {
                "description": "Get a `User` by ID\nReturns a user object if found, else an HTTP Error Code will be returned\n",
                "operationId": "getUserById",
                "parameters": [
                    {
                        "name": "userID",
                        "in": "path",
                        "required": true,
                        "type": "string",
                        "description": "ID of the user the client want to fetch"
                    }
                ],
                "responses": {
                    "200": {
                        "description": "Successful response",
                        "schema": {
                            "$ref": "#/definitions/User"
                        }
                    },
                    "401": {
                        "description": "unauthorized access"
                    },
                    "404": {
                        "description": "User not found"
                    }
                }
            },
            "put": {
                "description": "Update an existing `User`\n",
                "operationId": "getUserByIdAndUpdate",
                "parameters": [
                    {
                        "name": "userID",
                        "in": "path",
                        "description": "ID of the user that needs to be updated",
                        "required": true,
                        "type": "string"
                    },
                    {
                        "name": "user",
                        "in": "body",
                        "description": "userobject with updated data",
                        "required": true,
                        "schema": {
                            "$ref": "#/definitions/User"
                        }
                    }
                ],
                "responses": {
                    "200": {
                        "description": "Successful response"
                    },
                    "401": {
                        "description": "Unauthorized access"
                    },
                    "404": {
                        "description": "User not found"
                    },
                    "405": {
                        "description": "invalid input"
                    }
                }
            },
            "delete": {
                "description": "Delete a `User` by its ID\n",
                "operationId": "findUserByIdAndRemove",
                "parameters": [
                    {
                        "name": "userID",
                        "in": "path",
                        "required": true,
                        "type": "string",
                        "description": "ID of the User that should be removed"
                    }
                ],
                "responses": {
                    "200": {
                        "description": "Successful response"
                    },
                    "401": {
                        "description": "Unauthorized access"
                    },
                    "404": {
                        "description": "User not found"
                    }
                }
            }
        },
        "/car": {
            "get": {
                "description": "Gets `Car` objects.\nOptional query param of **size** determines\nsize of returned array\n",
                "parameters": [
                    {
                        "name": "size",
                        "in": "query",
                        "description": "Size of array",
                        "required": false,
                        "type": "number",
                        "format": "int32"
                    }
                ],
                "responses": {
                    "200": {
                        "description": "Successful response",
                        "schema": {
                            "title": "ArrayOfCars",
                            "type": "array",
                            "items": {
                                "$ref": "#/definitions/Car"
                            }
                        }
                    }
                }
            },
            "post": {
                "description": "Add a new `Car`\n",
                "parameters": [
                    {
                        "name": "car",
                        "in": "body",
                        "description": "Car object",
                        "required": false,
                        "schema": {
                            "$ref": "#/definitions/Car"
                        }
                    }
                ],
                "responses": {
                    "200": {
                        "description": "Successful response"
                    },
                    "401": {
                        "description": "unauthorized access"
                    },
                    "405": {
                        "description": "invalid input"
                    }
                }
            }
        },
        "/car/{carID}": {
            "get": {
                "description": "Get a `Car` by ID\nReturns a car object if found, else an HTTP Error Code will be returned\n",
                "operationId": "getCarById",
                "parameters": [
                    {
                        "name": "carID",
                        "in": "path",
                        "required": true,
                        "type": "string",
                        "description": "ID of the car the client want to fetch"
                    }
                ],
                "responses": {
                    "200": {
                        "description": "Successful response",
                        "schema": {
                            "$ref": "#/definitions/Car"
                        }
                    },
                    "401": {
                        "description": "unauthorized access"
                    },
                    "404": {
                        "description": "Drive not found"
                    }
                }
            },
            "put": {
                "description": "Update an existing `Car`\n",
                "operationId": "getCarByIdAndUpdate",
                "parameters": [
                    {
                        "name": "carID",
                        "in": "path",
                        "description": "ID of the drive that needs to be updated",
                        "required": true,
                        "type": "string"
                    },
                    {
                        "name": "car",
                        "in": "body",
                        "description": "driveobject with updated data",
                        "required": true,
                        "schema": {
                            "$ref": "#/definitions/Car"
                        }
                    }
                ],
                "responses": {
                    "200": {
                        "description": "Successful response"
                    },
                    "401": {
                        "description": "Unauthorized access"
                    },
                    "404": {
                        "description": "Car not found"
                    },
                    "405": {
                        "description": "invalid input"
                    }
                }
            },
            "delete": {
                "description": "Delete a `Car` by its ID\n",
                "operationId": "findCarByIdAndRemove",
                "parameters": [
                    {
                        "name": "carID",
                        "in": "path",
                        "required": true,
                        "type": "string",
                        "description": "ID of the Car that should be removed"
                    }
                ],
                "responses": {
                    "200": {
                        "description": "Successful response"
                    },
                    "401": {
                        "description": "Unauthorized access"
                    },
                    "404": {
                        "description": "Car not found"
                    }
                }
            }
        },
        "/drive": {
            "get": {
                "description": "Gets `Drive` objects.\nOptional query param of **size** determines\nsize of returned array\n",
                "parameters": [
                    {
                        "name": "size",
                        "in": "query",
                        "description": "Size of array",
                        "required": false,
                        "type": "number",
                        "format": "int32"
                    }
                ],
                "responses": {
                    "200": {
                        "description": "Successful response",
                        "schema": {
                            "title": "ArrayOfDrive",
                            "type": "array",
                            "items": {
                                "$ref": "#/definitions/Drive"
                            }
                        }
                    }
                }
            },
            "post": {
                "description": "Add a new `Drive`\n",
                "parameters": [
                    {
                        "name": "Car",
                        "in": "body",
                        "description": "Car object",
                        "required": false,
                        "schema": {
                            "$ref": "#/definitions/Drive"
                        }
                    }
                ],
                "responses": {
                    "200": {
                        "description": "Successful response"
                    },
                    "401": {
                        "description": "unauthorized access"
                    },
                    "405": {
                        "description": "invalid input"
                    }
                }
            }
        },
        "/drive/{driveID}": {
            "get": {
                "description": "Get a `Drive` by ID\nReturns a drive object if found, else an HTTP Error Code will be returned\n",
                "operationId": "getDriveById",
                "parameters": [
                    {
                        "name": "driveID",
                        "in": "path",
                        "required": true,
                        "type": "string",
                        "description": "ID of the drive the client want to fetch"
                    }
                ],
                "responses": {
                    "200": {
                        "description": "Successful response",
                        "schema": {
                            "$ref": "#/definitions/Drive"
                        }
                    },
                    "401": {
                        "description": "unauthorized access"
                    },
                    "404": {
                        "description": "Drive not found"
                    }
                }
            },
            "put": {
                "description": "Update an existing `Drive`\n",
                "operationId": "getDriveByIdAndUpdate",
                "parameters": [
                    {
                        "name": "driveID",
                        "in": "path",
                        "description": "ID of the drive that needs to be updated",
                        "required": true,
                        "type": "string"
                    },
                    {
                        "name": "drive",
                        "in": "body",
                        "description": "driveobject with updated data",
                        "required": true,
                        "schema": {
                            "$ref": "#/definitions/Drive"
                        }
                    }
                ],
                "responses": {
                    "200": {
                        "description": "Successful response"
                    },
                    "401": {
                        "description": "Unauthorized access"
                    },
                    "404": {
                        "description": "Drive not found"
                    },
                    "405": {
                        "description": "invalid input"
                    }
                }
            },
            "delete": {
                "description": "Delete a `Drive` by its ID\n",
                "operationId": "findDriveByIdAndRemove",
                "parameters": [
                    {
                        "name": "driveID",
                        "in": "path",
                        "required": true,
                        "type": "string",
                        "description": "ID of the Drive that should be removed"
                    }
                ],
                "responses": {
                    "200": {
                        "description": "Successful response"
                    },
                    "401": {
                        "description": "Unauthorized access"
                    },
                    "404": {
                        "description": "Drive not found"
                    }
                }
            }
        },
        "/reservation": {
            "get": {
                "description": "Gets `Reservation` objects.\nOptional query param of **size** determines\nsize of returned array\n",
                "parameters": [
                    {
                        "name": "size",
                        "in": "query",
                        "description": "Size of array",
                        "required": false,
                        "type": "number",
                        "format": "int32"
                    }
                ],
                "responses": {
                    "200": {
                        "description": "Successful response",
                        "schema": {
                            "title": "ArrayOfReservation",
                            "type": "array",
                            "items": {
                                "$ref": "#/definitions/Reservation"
                            }
                        }
                    }
                }
            },
            "post": {
                "description": "Add a new `Reservation`\n",
                "parameters": [
                    {
                        "name": "Reservation",
                        "in": "body",
                        "description": "Reservation object",
                        "required": true,
                        "schema": {
                            "$ref": "#/definitions/Reservation"
                        }
                    }
                ],
                "responses": {
                    "200": {
                        "description": "Successful response"
                    },
                    "401": {
                        "description": "unauthorized access"
                    },
                    "405": {
                        "description": "invalid input"
                    }
                }
            }
        },
        "/reservation/{reservationID}": {
            "get": {
                "description": "Get a `Reservation` by ID\nReturns a drive object if found, else an HTTP Error Code will be returned\n",
                "parameters": [
                    {
                        "name": "reservationID",
                        "in": "path",
                        "required": true,
                        "type": "string",
                        "description": "ID of the reservation the client want to fetch"
                    }
                ],
                "responses": {
                    "200": {
                        "description": "Successful response",
                        "schema": {
                            "$ref": "#/definitions/Reservation"
                        }
                    },
                    "401": {
                        "description": "unauthorized access"
                    },
                    "404": {
                        "description": "Reservation not found"
                    }
                }
            },
            "put": {
                "description": "Update an existing `Reservation`\n",
                "parameters": [
                    {
                        "name": "reservationID",
                        "in": "path",
                        "description": "ID of the reservation that needs to be updated",
                        "required": true,
                        "type": "string"
                    },
                    {
                        "name": "reservation",
                        "in": "body",
                        "description": "reservation object with updated data",
                        "required": true,
                        "schema": {
                            "$ref": "#/definitions/Reservation"
                        }
                    }
                ],
                "responses": {
                    "200": {
                        "description": "Successful response"
                    },
                    "401": {
                        "description": "Unauthorized access"
                    },
                    "404": {
                        "description": "Reservation not found"
                    },
                    "405": {
                        "description": "invalid input"
                    }
                }
            },
            "delete": {
                "description": "Delete a `Reservation` by its ID\n",
                "parameters": [
                    {
                        "name": "reservationID",
                        "in": "path",
                        "required": true,
                        "type": "string",
                        "description": "ID of the Reservation that should be removed"
                    }
                ],
                "responses": {
                    "200": {
                        "description": "Successful response"
                    },
                    "401": {
                        "description": "Unauthorized access"
                    },
                    "404": {
                        "description": "Reservation not found"
                    }
                }
            }
        }
    },
    "definitions": {
        "User": {
            "type": "object",
            "properties": {
                "id": {
                    "type": "integer",
                    "format": "int64"
                },
                "username": {
                    "type": "string"
                },
                "firstName": {
                    "type": "string"
                },
                "lastName": {
                    "type": "string"
                },
                "email": {
                    "type": "string"
                },
                "password": {
                    "type": "string"
                },
                "phone": {
                    "type": "string"
                },
                "role": {
                    "type": "string",
                    "description": "User Role - permissions"
                }
            }
        },
        "Car": {
            "type": "object",
            "properties": {
                "name": {
                    "type": "string"
                },
                "mileage": {
                    "type": "number",
                    "format": "double"
                },
                "battery": {
                    "type": "number",
                    "format": "double"
                },
                "availablity": {
                    "type": "boolean"
                }
            }
        },
        "Drive": {
            "type": "object",
            "properties": {
                "driver": {
                    "$ref": "#/definitions/User"
                },
                "startDate": {
                    "type": "string",
                    "format": "date"
                },
                "endDate": {
                    "type": "string",
                    "format": "date"
                },
                "startPoint": {
                    "type": "string"
                },
                "endPoint": {
                    "type": "string"
                },
                "distance": {
                    "type": "number",
                    "format": "double"
                },
                "usedBattery": {
                    "type": "number",
                    "format": "double"
                }
            }
        },
        "Reservation": {
            "type": "object",
            "properties": {
                "user": {
                    "$ref": "#/definitions/User"
                },
                "car": {
                    "$ref": "#/definitions/Car"
                },
                "startDate": {
                    "type": "string",
                    "format": "date-time",
                    "description": "foramted according to RFC3339"
                },
                "endDate": {
                    "type": "string",
                    "format": "date-time",
                    "description": "foramted according to RFC3339"
                }
            }
        }
    }
}