EESchema Schematic File Version 4
LIBS:ePolo_Charger-cache
EELAYER 29 0
EELAYER END
$Descr User 20814 18686
encoding utf-8
Sheet 1 1
Title ""
Date ""
Rev ""
Comp ""
Comment1 ""
Comment2 ""
Comment3 ""
Comment4 ""
$EndDescr
Wire Wire Line
	8300 12500 8750 12500
Wire Wire Line
	5500 13500 6600 13500
Wire Wire Line
	8000 12300 6600 12300
Wire Wire Line
	6600 12300 6600 13500
Wire Wire Line
	8300 10000 8300 10300
Wire Wire Line
	5500 13400 6500 13400
Wire Wire Line
	8000 9800 6500 9800
Wire Wire Line
	5500 13300 6300 13300
Wire Wire Line
	8000 7900 6300 7900
Wire Wire Line
	10000 5800 8800 5800
Wire Wire Line
	4400 13400 4400 10900
Wire Wire Line
	4400 10900 5900 10900
Wire Wire Line
	5900 10900 5900 3300
Wire Wire Line
	7900 3300 5900 3300
Wire Wire Line
	4300 13500 4300 10800
Wire Wire Line
	4300 10800 5800 10800
Wire Wire Line
	5800 10800 5800 1700
Wire Wire Line
	5800 1700 7700 1700
Wire Wire Line
	4500 13300 4500 11000
Wire Wire Line
	4500 11000 6000 11000
Wire Wire Line
	7900 5600 6000 5600
Wire Wire Line
	11700 13000 11700 13400
Wire Wire Line
	11700 13700 11700 13400
Connection ~ 11700 13400
Wire Wire Line
	14500 11000 13400 11000
Wire Wire Line
	11700 12500 13400 12500
Wire Wire Line
	11700 14100 13400 14100
Wire Wire Line
	13400 14100 13400 12500
Wire Wire Line
	13400 11000 13400 11900
Wire Wire Line
	13400 11900 13400 12500
Wire Wire Line
	11700 11900 13400 11900
Wire Wire Line
	11700 10800 13400 10800
Wire Wire Line
	13400 10800 13400 11000
Connection ~ 13400 12500
Connection ~ 13400 11900
Connection ~ 13400 11000
Wire Wire Line
	11700 11500 12700 11500
Wire Wire Line
	12700 11500 12700 10300
Wire Wire Line
	12700 10300 12700 9700
Wire Wire Line
	11700 10300 12700 10300
Wire Wire Line
	11700 8600 12700 8600
Wire Wire Line
	12700 8600 12700 9700
Connection ~ 12700 10300
Connection ~ 12700 9700
Wire Wire Line
	11700 9300 13400 9300
Wire Wire Line
	13400 9300 13400 8100
Wire Wire Line
	13400 8100 13400 7500
Wire Wire Line
	13400 7500 14400 7500
Wire Wire Line
	11700 8100 13400 8100
Wire Wire Line
	11700 7400 13400 7400
Wire Wire Line
	13400 7400 13400 7500
Wire Wire Line
	11700 6300 13400 6300
Wire Wire Line
	13400 6300 13400 7400
Connection ~ 13400 8100
Connection ~ 13400 7500
Wire Wire Line
	11700 7000 12800 7000
Wire Wire Line
	12800 7000 12800 5800
Wire Wire Line
	11700 5800 12800 5800
Wire Wire Line
	11700 5100 12800 5100
Wire Wire Line
	11700 4000 12800 4000
Wire Wire Line
	12800 4000 12800 5100
Connection ~ 12800 5800
Connection ~ 12800 5100
Wire Wire Line
	11700 1800 12500 1800
Wire Wire Line
	12500 1800 12500 2100
Wire Wire Line
	11700 2500 12500 2500
Wire Wire Line
	12500 2500 12500 2100
Connection ~ 12500 2100
Wire Wire Line
	15400 7500 16000 7500
Wire Wire Line
	11700 3500 13800 3500
Wire Wire Line
	13800 4700 13800 3500
Wire Wire Line
	11700 4700 13800 4700
Wire Wire Line
	11700 2900 13800 2900
Wire Wire Line
	13800 2900 13800 1300
Wire Wire Line
	13800 1300 11700 1300
Wire Wire Line
	13800 2900 13800 3300
Wire Wire Line
	13800 3300 14400 3300
Wire Wire Line
	13800 3500 13800 3300
Connection ~ 13800 2900
Connection ~ 13800 3500
Connection ~ 13800 3300
Wire Wire Line
	15400 3300 15900 3300
Wire Wire Line
	15100 5100 18900 5100
Wire Wire Line
	18900 5100 18900 8100
Wire Wire Line
	18900 8100 18900 11600
Wire Wire Line
	18900 11600 18900 16700
Wire Wire Line
	18900 16700 5000 16700
Wire Wire Line
	15100 8100 18900 8100
Wire Wire Line
	15200 11600 18900 11600
Connection ~ 18900 8100
Connection ~ 18900 11600
Wire Wire Line
	15900 11000 15500 11000
Wire Wire Line
	2100 15000 2100 15300
Wire Wire Line
	1100 15300 1100 15000
Wire Wire Line
	14700 5500 16900 5500
Wire Wire Line
	16900 5500 16900 8900
Wire Wire Line
	16900 8900 16900 12700
Wire Wire Line
	16900 12700 16900 15600
Wire Wire Line
	16900 15600 5500 15600
Wire Wire Line
	5500 14700 5500 15300
Wire Wire Line
	5500 15300 5500 15600
Wire Wire Line
	14800 11600 14800 12700
Wire Wire Line
	14800 12700 16900 12700
Wire Wire Line
	14700 8100 14700 8900
Wire Wire Line
	14700 8900 16900 8900
Wire Wire Line
	1100 15300 2100 15300
Wire Wire Line
	2100 15300 3750 15300
Connection ~ 16900 12700
Connection ~ 16900 8900
Connection ~ 5500 15300
Connection ~ 2100 15300
Wire Wire Line
	1700 13300 1700 13100
Wire Wire Line
	2200 13300 1700 13300
Wire Wire Line
	1300 12400 1300 12700
Wire Wire Line
	1000 12400 1000 13300
Wire Wire Line
	1000 13300 1000 14200
Wire Wire Line
	1000 14200 1000 14400
Wire Wire Line
	1300 13000 1300 13300
Wire Wire Line
	1300 13300 1000 13300
Wire Wire Line
	3000 14500 2100 14500
Wire Wire Line
	2100 14500 2100 14200
Wire Wire Line
	2100 14200 1000 14200
Wire Wire Line
	1900 15000 1800 15000
Wire Wire Line
	1000 14400 1900 14400
Wire Wire Line
	1900 14400 1900 15000
Wire Wire Line
	2800 15000 3000 15000
Wire Wire Line
	3000 14500 3000 15000
Connection ~ 1000 13300
Connection ~ 1000 14200
Wire Wire Line
	1500 13200 2700 13200
Wire Wire Line
	1500 13200 1500 14100
Wire Wire Line
	1500 14100 1100 14100
Wire Wire Line
	1100 14100 1100 14800
Wire Wire Line
	2800 13600 2400 13600
Wire Wire Line
	2400 13600 2400 14000
Wire Wire Line
	2400 14000 2000 14000
Wire Wire Line
	2000 14000 2000 14800
Wire Wire Line
	2800 14800 2800 13800
Wire Wire Line
	2800 13800 2200 13800
Wire Wire Line
	2200 13800 2200 13650
Wire Wire Line
	1800 14800 1800 13800
Wire Wire Line
	1800 13800 1700 13800
Wire Wire Line
	1700 13800 1700 13650
Wire Wire Line
	3100 13600 4000 13600
Wire Wire Line
	4000 13600 4000 13700
Wire Wire Line
	3000 13200 4200 13200
Wire Wire Line
	4200 13200 4200 13600
Wire Wire Line
	10000 2000 10000 1300
Wire Wire Line
	8000 1900 8000 2000
Wire Wire Line
	8000 2000 8800 2000
Wire Wire Line
	9500 2900 10000 2900
Wire Wire Line
	9500 5100 10000 5100
Wire Wire Line
	9500 5100 9500 2900
Wire Wire Line
	9500 9700 10000 9700
Wire Wire Line
	9500 14100 10000 14100
Wire Wire Line
	9500 11900 10000 11900
Wire Wire Line
	9500 11900 9500 14100
Wire Wire Line
	9500 11900 9500 9700
Wire Wire Line
	9500 9700 9500 7400
Wire Wire Line
	9500 7400 9500 5100
Wire Wire Line
	9500 7400 10000 7400
Connection ~ 9500 5100
Connection ~ 9500 11900
Connection ~ 9500 9700
Connection ~ 9500 7400
Connection ~ 9500 2900
Wire Wire Line
	8000 1500 8600 1500
Wire Wire Line
	8200 3100 8600 3100
Wire Wire Line
	8600 3100 8600 1500
Wire Wire Line
	8600 3100 8600 5400
Wire Wire Line
	8600 5400 8600 7700
Wire Wire Line
	8600 7700 8600 9600
Wire Wire Line
	8600 9600 8600 12100
Wire Wire Line
	8600 12100 8300 12100
Wire Wire Line
	8300 9600 8600 9600
Wire Wire Line
	8300 7700 8600 7700
Wire Wire Line
	8200 5400 8600 5400
Connection ~ 8600 1500
Connection ~ 8600 3100
Connection ~ 8600 9600
Connection ~ 8600 7700
Connection ~ 8600 5400
$Comp
L Connector_Generic:Conn_02x22_Odd_Even STMPINS1
U 1 1 A5272E11
P 1900 3350
F 0 "STMPINS1" H 1650 4475 59  0000 L BNN
F 1 "PINHD-2X22" H 1650 2050 59  0000 L BNN
F 2 "Connector_PinHeader_2.54mm:PinHeader_2x22_P2.54mm_Vertical" H 1900 3350 50  0001 C CNN
F 3 "" H 1900 3350 50  0001 C CNN
	1    1900 3350
	1    0    0    -1  
$EndComp
$Comp
L Connector_Generic:Conn_01x01 LD3
U 1 1 4E937A22
P 12900 13400
F 0 "LD3" H 12855 13473 59  0000 L BNN
F 1 "3,81_1,1" H 12855 13270 59  0000 L BNN
F 2 "EPolo:MaleTerminal" H 12900 13400 50  0001 C CNN
F 3 "" H 12900 13400 50  0001 C CNN
	1    12900 13400
	1    0    0    -1  
$EndComp
$Comp
L Connector_Generic:Conn_01x01 LD2
U 1 1 9F05FC0D
P 12900 9700
F 0 "LD2" H 12855 9773 59  0000 L BNN
F 1 "3,81_1,1" H 12855 9570 59  0000 L BNN
F 2 "EPolo:MaleTerminal" H 12900 9700 50  0001 C CNN
F 3 "" H 12900 9700 50  0001 C CNN
	1    12900 9700
	1    0    0    -1  
$EndComp
$Comp
L Connector_Generic:Conn_01x01 LD1
U 1 1 E38DF8DC
P 12900 2100
F 0 "LD1" H 12855 2173 59  0000 L BNN
F 1 "3,81_1,1" H 12855 1970 59  0000 L BNN
F 2 "EPolo:MaleTerminal" H 12900 2100 50  0001 C CNN
F 3 "" H 12900 2100 50  0001 C CNN
	1    12900 2100
	1    0    0    -1  
$EndComp
$Comp
L Connector_Generic:Conn_01x01 LD4
U 1 1 B8DCA528
P 13000 5450
F 0 "LD4" H 12955 5523 59  0000 L BNN
F 1 "3,81_1,1" H 12955 5320 59  0000 L BNN
F 2 "EPolo:MaleTerminal" H 13000 5450 50  0001 C CNN
F 3 "" H 13000 5450 50  0001 C CNN
	1    13000 5450
	1    0    0    -1  
$EndComp
$Comp
L Connector_Generic:Conn_01x01 PH1
U 1 1 263833D1
P 16100 11000
F 0 "PH1" H 16055 11073 59  0000 L BNN
F 1 "3,81_1,4" H 16055 10870 59  0000 L BNN
F 2 "EPolo:MaleTerminal" H 16100 11000 50  0001 C CNN
F 3 "" H 16100 11000 50  0001 C CNN
	1    16100 11000
	1    0    0    -1  
$EndComp
$Comp
L Connector_Generic:Conn_01x01 PH2
U 1 1 34F05650
P 16200 7500
F 0 "PH2" H 16155 7573 59  0000 L BNN
F 1 "3,81_1,4" H 16155 7370 59  0000 L BNN
F 2 "EPolo:MaleTerminal" H 16200 7500 50  0001 C CNN
F 3 "" H 16200 7500 50  0001 C CNN
	1    16200 7500
	1    0    0    -1  
$EndComp
$Comp
L Sensor_Current:ACS758xCB-050B-PFF I_PH3
U 1 1 E57833A7
P 14900 3500
F 0 "I_PH3" H 14800 3850 59  0000 L BNN
F 1 "ACS758" H 14800 3100 59  0000 L BNN
F 2 "Sensor_Current:Allegro_CB_PFF" H 14900 3500 50  0001 C CNN
F 3 "" H 14900 3500 50  0001 C CNN
	1    14900 3500
	0    1    1    0   
$EndComp
$Comp
L Connector_Generic:Conn_01x01 N1
U 1 1 E75B3009
P 19425 9900
F 0 "N1" H 19380 9973 59  0000 L BNN
F 1 "3,81_1,4" H 19380 9770 59  0000 L BNN
F 2 "EPolo:MaleTerminal" H 19425 9900 50  0001 C CNN
F 3 "" H 19425 9900 50  0001 C CNN
	1    19425 9900
	0    1    1    0   
$EndComp
$Comp
L Diode:1N4004 D1
U 1 1 8D141E84
P 1700 12950
F 0 "D1" H 1800 12969 59  0000 L BNN
F 1 "ES2D" H 1800 12859 59  0000 L BNN
F 2 "Diode_SMD:D_0805_2012Metric" H 1700 12950 50  0001 C CNN
F 3 "" H 1700 12950 50  0001 C CNN
	1    1700 12950
	0    -1   1    0   
$EndComp
$Comp
L Device:R R2
U 1 1 0D61857A
P 1700 13500
F 0 "R2" H 1550 13559 59  0000 L BNN
F 1 "2,7k" H 1550 13370 59  0000 L BNN
F 2 "Resistor_SMD:R_0603_1608Metric" H 1700 13500 50  0001 C CNN
F 3 "" H 1700 13500 50  0001 C CNN
	1    1700 13500
	1    0    0    -1  
$EndComp
$Comp
L Device:R R1
U 1 1 45173FA4
P 1300 12850
F 0 "R1" H 1150 12909 59  0000 L BNN
F 1 "0,68k" H 1150 12720 59  0000 L BNN
F 2 "Resistor_SMD:R_0603_1608Metric" H 1300 12850 50  0001 C CNN
F 3 "" H 1300 12850 50  0001 C CNN
	1    1300 12850
	1    0    0    -1  
$EndComp
$Comp
L Device:R R3
U 1 1 4FD7CBCD
P 2200 13500
F 0 "R3" H 2050 13559 59  0000 L BNN
F 1 "0,88k" H 2050 13370 59  0000 L BNN
F 2 "Resistor_SMD:R_0603_1608Metric" H 2200 13500 50  0001 C CNN
F 3 "" H 2200 13500 50  0001 C CNN
	1    2200 13500
	1    0    0    -1  
$EndComp
$Comp
L Device:R R5
U 1 1 F5826C69
P 2950 13600
F 0 "R5" H 2800 13659 59  0000 L BNN
F 1 "0,2k" H 2800 13470 59  0000 L BNN
F 2 "Resistor_SMD:R_0603_1608Metric" H 2950 13600 50  0001 C CNN
F 3 "" H 2950 13600 50  0001 C CNN
	1    2950 13600
	0    1    1    0   
$EndComp
$Comp
L Device:R R4
U 1 1 47AF1279
P 2850 13200
F 0 "R4" H 2700 13259 59  0000 L BNN
F 1 "0,2k" H 2700 13070 59  0000 L BNN
F 2 "Resistor_SMD:R_0603_1608Metric" H 2850 13200 50  0001 C CNN
F 3 "" H 2850 13200 50  0001 C CNN
	1    2850 13200
	0    1    1    0   
$EndComp
$Comp
L Isolator:ILD74 OK1
U 1 1 3915DF78
P 1500 14900
F 0 "OK1" H 1225 15125 59  0000 L BNN
F 1 "ILD2" H 1225 14600 59  0000 L BNN
F 2 "Package_SO:SOIC-8_3.9x4.9mm_P1.27mm" H 1500 14900 50  0001 C CNN
F 3 "" H 1500 14900 50  0001 C CNN
	1    1500 14900
	1    0    0    -1  
$EndComp
$Comp
L Isolator:ILD74 OK1
U 2 1 3915DF74
P 2500 14900
F 0 "OK1" H 2225 15125 59  0000 L BNN
F 1 "ILD2" H 2225 14600 59  0000 L BNN
F 2 "Package_SO:SOIC-8_3.9x4.9mm_P1.27mm" H 2500 14900 50  0001 C CNN
F 3 "" H 2500 14900 50  0001 C CNN
	2    2500 14900
	1    0    0    -1  
$EndComp
$Comp
L Transistor_FET:BSS123 Q6
U 1 1 7A211019
P 8200 12300
F 0 "Q6" H 8300 12300 59  0000 L BNN
F 1 "BSS123" H 8300 12200 59  0000 L BNN
F 2 "Package_TO_SOT_SMD:SOT-23" H 8200 12300 50  0001 C CNN
F 3 "" H 8200 12300 50  0001 C CNN
	1    8200 12300
	1    0    0    1   
$EndComp
$Comp
L Transistor_FET:BSS123 Q5
U 1 1 DA191B3C
P 8200 9800
F 0 "Q5" H 8300 9800 59  0000 L BNN
F 1 "BSS123" H 8300 9700 59  0000 L BNN
F 2 "Package_TO_SOT_SMD:SOT-23" H 8200 9800 50  0001 C CNN
F 3 "" H 8200 9800 50  0001 C CNN
	1    8200 9800
	1    0    0    1   
$EndComp
$Comp
L Transistor_FET:BSS123 Q4
U 1 1 A3E817C2
P 8200 7900
F 0 "Q4" H 8300 7900 59  0000 L BNN
F 1 "BSS123" H 8300 7800 59  0000 L BNN
F 2 "Package_TO_SOT_SMD:SOT-23" H 8200 7900 50  0001 C CNN
F 3 "" H 8200 7900 50  0001 C CNN
	1    8200 7900
	1    0    0    1   
$EndComp
$Comp
L Transistor_FET:BSS123 Q2
U 1 1 2EFB3759
P 8100 3300
F 0 "Q2" H 8200 3300 59  0000 L BNN
F 1 "BSS123" H 8200 3200 59  0000 L BNN
F 2 "Package_TO_SOT_SMD:SOT-23" H 8100 3300 50  0001 C CNN
F 3 "" H 8100 3300 50  0001 C CNN
	1    8100 3300
	1    0    0    1   
$EndComp
$Comp
L Transistor_FET:BSS123 Q1
U 1 1 A7ECA7AB
P 7900 1700
F 0 "Q1" H 8000 1700 59  0000 L BNN
F 1 "BSS123" H 8000 1600 59  0000 L BNN
F 2 "Package_TO_SOT_SMD:SOT-23" H 7900 1700 50  0001 C CNN
F 3 "" H 7900 1700 50  0001 C CNN
	1    7900 1700
	1    0    0    1   
$EndComp
$Comp
L Transistor_FET:BSS123 Q3
U 1 1 323115D8
P 8100 5600
F 0 "Q3" H 8200 5600 59  0000 L BNN
F 1 "BSS123" H 8200 5500 59  0000 L BNN
F 2 "Package_TO_SOT_SMD:SOT-23" H 8100 5600 50  0001 C CNN
F 3 "" H 8100 5600 50  0001 C CNN
	1    8100 5600
	1    0    0    1   
$EndComp
Text Notes 4700 13100 0    59   ~ 0
SPI SS
Text Notes 5500 13200 0    59   ~ 0
SPI MOSI
Text Notes 4600 13200 0    59   ~ 0
SPI MISO
Text Notes 5500 13100 0    59   ~ 0
SPI SCK
Wire Wire Line
	8300 10300 8750 10300
Wire Wire Line
	8300 8100 8800 8100
Wire Wire Line
	8200 3500 8750 3500
Wire Wire Line
	6000 5600 6000 11000
Text Label 11700 5800 0    50   ~ 0
LD3
Text Label 12050 1800 0    50   ~ 0
LD4
Text Label 15650 7500 0    50   ~ 0
PH2
Text Label 15550 3300 0    50   ~ 0
PH3
Text Label 14100 3300 0    50   ~ 0
IPH3
Text Label 14000 7500 0    50   ~ 0
IPH2
Text Label 12100 9700 0    50   ~ 0
LD2
Text Label 15600 11000 0    50   ~ 0
PH1
Text Label 13850 11000 0    50   ~ 0
IPH1
$Comp
L Connector_Generic:Conn_01x01 PH3
U 1 1 32C71CCA
P 16100 3300
F 0 "PH3" H 16055 3373 59  0000 L BNN
F 1 "3,81_1,4" H 16055 3170 59  0000 L BNN
F 2 "EPolo:MaleTerminal" H 16100 3300 50  0001 C CNN
F 3 "" H 16100 3300 50  0001 C CNN
	1    16100 3300
	1    0    0    -1  
$EndComp
Wire Wire Line
	15000 14600 15000 11600
Wire Wire Line
	1700 12400 1700 12800
Wire Wire Line
	14900 10150 17050 10150
Wire Wire Line
	14900 8100 14900 10150
Wire Wire Line
	14900 3900 14900 6550
Wire Wire Line
	14900 6550 17300 6550
Text Label 15000 12300 0    50   ~ 0
I_PH1
Text Label 14900 9350 0    50   ~ 0
I_PH2
Text Label 14900 5950 0    50   ~ 0
I_PH3
Wire Wire Line
	14700 3900 14700 5500
Wire Wire Line
	14600 3500 14600 3900
Wire Wire Line
	14600 3900 14700 3900
Wire Wire Line
	15200 3500 15200 3900
Wire Wire Line
	15200 3900 15100 3900
Wire Wire Line
	15100 3900 15100 5100
Wire Wire Line
	15400 3300 15400 3100
Wire Wire Line
	15400 3100 15000 3100
Wire Wire Line
	14800 3100 14400 3100
Wire Wire Line
	14400 3100 14400 3300
$Comp
L Sensor_Current:ACS758xCB-050B-PFF I_PH2
U 1 1 5D30098B
P 14900 7700
F 0 "I_PH2" H 14800 8050 59  0000 L BNN
F 1 "ACS758" H 14800 7300 59  0000 L BNN
F 2 "Sensor_Current:Allegro_CB_PFF" H 14900 7700 50  0001 C CNN
F 3 "" H 14900 7700 50  0001 C CNN
	1    14900 7700
	0    1    1    0   
$EndComp
$Comp
L Sensor_Current:ACS758xCB-050B-PFF I_PH1
U 1 1 5D30795E
P 15000 11200
F 0 "I_PH1" H 14900 11550 59  0000 L BNN
F 1 "ACS758" H 14900 10800 59  0000 L BNN
F 2 "Sensor_Current:Allegro_CB_PFF" H 15000 11200 50  0001 C CNN
F 3 "" H 15000 11200 50  0001 C CNN
	1    15000 11200
	0    1    1    0   
$EndComp
Wire Wire Line
	15300 11200 15300 11550
Wire Wire Line
	15300 11550 15200 11550
Wire Wire Line
	15200 11550 15200 11600
Wire Wire Line
	14800 11600 14700 11600
Wire Wire Line
	14700 11200 14700 11600
Wire Wire Line
	15500 11000 15500 10800
Wire Wire Line
	15500 10800 15100 10800
Wire Wire Line
	14900 10800 14500 10800
Wire Wire Line
	14500 10800 14500 11000
Wire Wire Line
	15200 7700 15200 8050
Wire Wire Line
	15200 8050 15100 8050
Wire Wire Line
	15100 8050 15100 8100
Wire Wire Line
	14700 8100 14600 8100
Wire Wire Line
	14600 7700 14600 8100
Wire Wire Line
	14400 7500 14400 7300
Wire Wire Line
	14400 7300 14800 7300
Wire Wire Line
	15400 7500 15400 7300
Wire Wire Line
	15400 7300 15000 7300
Wire Wire Line
	8600 1000 8600 1500
Wire Wire Line
	9500 1000 9500 2900
Wire Wire Line
	12800 5100 12800 5450
Wire Wire Line
	12500 2100 12700 2100
Connection ~ 12800 5450
Wire Wire Line
	12800 5450 12800 5800
Wire Wire Line
	11700 9700 12700 9700
Wire Wire Line
	11700 13400 12700 13400
Wire Wire Line
	1700 13300 1700 13350
Connection ~ 1700 13300
Wire Wire Line
	2200 13300 2200 13350
Wire Wire Line
	1100 14800 1200 14800
Wire Wire Line
	1100 15000 1200 15000
Wire Wire Line
	2000 14800 2200 14800
Wire Wire Line
	2100 15000 2200 15000
Wire Wire Line
	5000 16700 5000 14700
Wire Wire Line
	4000 13700 5000 13700
Wire Wire Line
	4200 13600 5000 13600
Wire Wire Line
	5000 13500 4300 13500
Wire Wire Line
	5000 13400 4400 13400
Wire Wire Line
	5000 13300 4500 13300
Wire Wire Line
	5000 12700 4750 12700
Wire Wire Line
	4750 12300 6200 12300
Wire Wire Line
	6200 12300 6200 14600
Wire Wire Line
	6200 14600 15000 14600
Wire Wire Line
	6150 12700 6150 14650
Wire Wire Line
	6150 14650 17050 14650
Wire Wire Line
	17050 10150 17050 14650
Wire Wire Line
	6100 12800 6100 14700
Wire Wire Line
	6100 14700 17300 14700
Wire Wire Line
	17300 6550 17300 14700
Wire Wire Line
	3750 15300 3750 10250
Wire Wire Line
	3750 6850 1600 6850
Connection ~ 3750 15300
Wire Wire Line
	3750 15300 5500 15300
Wire Wire Line
	1600 7900 3750 7900
Connection ~ 3750 7900
Wire Wire Line
	3750 7900 3750 6850
Wire Wire Line
	1600 9050 3750 9050
Connection ~ 3750 9050
Wire Wire Line
	3750 9050 3750 7900
Wire Wire Line
	1600 10250 3750 10250
Connection ~ 3750 10250
Wire Wire Line
	3750 10250 3750 9050
Wire Wire Line
	5000 14700 3850 14700
Wire Wire Line
	3850 6150 1600 6150
Wire Wire Line
	1600 7200 3850 7200
Connection ~ 3850 7200
Wire Wire Line
	3850 7200 3850 6150
Wire Wire Line
	1600 8350 3850 8350
Wire Wire Line
	3850 7200 3850 8350
Connection ~ 3850 8350
Wire Wire Line
	3850 8350 3850 9550
Wire Wire Line
	1600 9550 3850 9550
Connection ~ 3850 9550
Wire Wire Line
	3850 9550 3850 14700
Wire Wire Line
	2100 9850 2650 9850
Wire Wire Line
	2650 9850 2650 10000
Wire Wire Line
	2100 9750 2650 9750
Wire Wire Line
	2100 8650 2650 8650
Wire Wire Line
	2650 8650 2650 8850
Wire Wire Line
	2100 8550 2650 8550
Wire Wire Line
	2100 7500 2700 7500
Wire Wire Line
	2700 7500 2700 7700
Wire Wire Line
	2100 7400 2700 7400
Wire Wire Line
	2100 6450 2700 6450
Wire Wire Line
	2700 6450 2700 6650
Wire Wire Line
	2100 6350 2700 6350
Wire Wire Line
	1700 4250 550  4250
Wire Wire Line
	550  4250 550  9950
Wire Wire Line
	1700 4350 600  4350
Wire Wire Line
	600  4350 600  8750
Wire Wire Line
	600  8750 1300 8750
Wire Wire Line
	2200 4350 2300 4350
Wire Wire Line
	2300 4350 2300 4800
Wire Wire Line
	2300 4800 650  4800
Wire Wire Line
	650  4800 650  7600
Wire Wire Line
	650  7600 1300 7600
Wire Wire Line
	2200 4250 2350 4250
Wire Wire Line
	2350 4250 2350 4900
Wire Wire Line
	2350 4900 700  4900
Wire Wire Line
	700  4900 700  6550
Wire Wire Line
	700  6550 1300 6550
Wire Wire Line
	5500 12700 6150 12700
Connection ~ 5000 14700
$Comp
L Connector_Generic:Conn_02x22_Odd_Even STMPINS2
U 1 1 F614B1C3
P 5200 13600
F 0 "STMPINS2" H 4950 14725 59  0000 L BNN
F 1 "PINHD-2X22" H 4950 12300 59  0000 L BNN
F 2 "Connector_PinHeader_2.54mm:PinHeader_2x22_P2.54mm_Vertical" H 5200 13600 50  0001 C CNN
F 3 "" H 5200 13600 50  0001 C CNN
	1    5200 13600
	1    0    0    -1  
$EndComp
Wire Wire Line
	5500 12800 6100 12800
Text Notes 5500 12800 0    50   ~ 0
PC3
Text Notes 4850 12700 0    50   ~ 0
PC0
Text Notes 1550 4250 0    50   ~ 0
PC9
Text Notes 2200 4350 0    50   ~ 0
PC6
Text Notes 2200 4250 0    50   ~ 0
PC8
Text Notes 1550 4350 0    50   ~ 0
PC7
Text Notes 5500 14700 0    50   ~ 0
+5V
Text Notes 4800 14700 0    50   ~ 0
GND
Text Notes 4850 13300 0    50   ~ 0
PC4
Text Notes 4850 13400 0    50   ~ 0
PB0
Text Notes 4850 13500 0    50   ~ 0
PB2
Text Notes 4850 13600 0    50   ~ 0
PE8
Text Notes 4800 13700 0    50   ~ 0
PE10
Text Notes 5500 13500 0    50   ~ 0
PE7
Text Notes 5500 13400 0    50   ~ 0
PB1
Text Notes 5500 13300 0    50   ~ 0
PC5
Text Notes 5500 12700 0    50   ~ 0
PC1
Wire Wire Line
	2200 4150 2400 4150
Wire Wire Line
	2400 4150 2400 5550
Wire Wire Line
	2400 5550 850  5550
Wire Wire Line
	2200 4050 2450 4050
Wire Wire Line
	2450 4050 2450 5600
Wire Wire Line
	2450 5600 900  5600
Wire Wire Line
	2200 3950 2500 3950
Wire Wire Line
	2500 3950 2500 5650
Wire Wire Line
	2500 5650 950  5650
Wire Wire Line
	2200 3850 2550 3850
Wire Wire Line
	2550 3850 2550 5700
Wire Wire Line
	2550 5700 1000 5700
Wire Wire Line
	1000 5700 1000 6650
Wire Wire Line
	1000 6650 1300 6650
Wire Wire Line
	950  5650 950  7700
Wire Wire Line
	950  7700 1300 7700
Wire Wire Line
	900  5600 900  8850
Wire Wire Line
	900  8850 1300 8850
Wire Wire Line
	850  5550 850  10050
Text Notes 2200 4150 0    50   ~ 0
PA8
Text Notes 2200 4050 0    50   ~ 0
PA10
Text Notes 2200 3950 0    50   ~ 0
PA12
Text Notes 2200 3850 0    50   ~ 0
PA14
$Comp
L Epolo:OMRON_G7L-2A-P PH1-LD2
U 1 1 5D7358B1
P 11500 14300
F 0 "PH1-LD2" V 13712 14950 50  0000 C CNN
F 1 "OMRON_G7L-2A-P" V 13621 14950 50  0000 C CNN
F 2 "EPolo:G7L-2A-P" H 11500 14300 50  0001 C CNN
F 3 "" H 11500 14300 50  0001 C CNN
	1    11500 14300
	0    -1   -1   0   
$EndComp
$Comp
L Epolo:OMRON_G7L-2A-P PH1-LD1
U 1 1 5D751562
P 11500 12100
F 0 "PH1-LD1" V 13712 12750 50  0000 C CNN
F 1 "OMRON_G7L-2A-P" V 13621 12750 50  0000 C CNN
F 2 "EPolo:G7L-2A-P" H 11500 12100 50  0001 C CNN
F 3 "" H 11500 12100 50  0001 C CNN
	1    11500 12100
	0    -1   -1   0   
$EndComp
$Comp
L Epolo:OMRON_G7L-2A-P PH2-LD2
U 1 1 5D76AC9F
P 11500 9900
F 0 "PH2-LD2" V 13712 10550 50  0000 C CNN
F 1 "OMRON_G7L-2A-P" V 13621 10550 50  0000 C CNN
F 2 "EPolo:G7L-2A-P" H 11500 9900 50  0001 C CNN
F 3 "" H 11500 9900 50  0001 C CNN
	1    11500 9900
	0    -1   -1   0   
$EndComp
$Comp
L Epolo:OMRON_G7L-2A-P PH2-LD1
U 1 1 5D79E734
P 11500 7600
F 0 "PH2-LD1" V 13712 8250 50  0000 C CNN
F 1 "OMRON_G7L-2A-P" V 13621 8250 50  0000 C CNN
F 2 "EPolo:G7L-2A-P" H 11500 7600 50  0001 C CNN
F 3 "" H 11500 7600 50  0001 C CNN
	1    11500 7600
	0    -1   -1   0   
$EndComp
$Comp
L Epolo:OMRON_G7L-2A-P PH3-LD2
U 1 1 5D7B7CAF
P 11500 5300
F 0 "PH3-LD2" V 13712 5950 50  0000 C CNN
F 1 "OMRON_G7L-2A-P" V 13621 5950 50  0000 C CNN
F 2 "EPolo:G7L-2A-P" H 11500 5300 50  0001 C CNN
F 3 "" H 11500 5300 50  0001 C CNN
	1    11500 5300
	0    -1   -1   0   
$EndComp
$Comp
L Epolo:OMRON_G7L-2A-P PH3-LD1
U 1 1 5D7D1536
P 11500 3100
F 0 "PH3-LD1" V 13712 3750 50  0000 C CNN
F 1 "OMRON_G7L-2A-P" V 13621 3750 50  0000 C CNN
F 2 "EPolo:G7L-2A-P" H 11500 3100 50  0001 C CNN
F 3 "" H 11500 3100 50  0001 C CNN
	1    11500 3100
	0    -1   -1   0   
$EndComp
Wire Wire Line
	5500 13100 5700 13100
Wire Wire Line
	5000 13100 4700 13100
Wire Wire Line
	5000 13200 4650 13200
Text Notes 5000 11500 2    50   ~ 0
SPI SS
Text Notes 5775 11600 2    50   ~ 0
SPI MISO
Text Notes 5000 11600 2    50   ~ 0
SPI MOSI
Text Notes 5750 11500 2    50   ~ 0
SPI SCK
$Comp
L Potentiometer_Digital:MCP4021-xxxxSN LD1_V--1
U 1 1 5D1ECD2A
P 1700 7600
F 0 "LD1_V--1" H 1700 8181 50  0000 C CNN
F 1 "MCP4021-xxxxSN" H 1700 8090 50  0000 C CNN
F 2 "Package_SO:SOIC-8_3.9x4.9mm_P1.27mm" H 1750 7350 50  0001 L CNN
F 3 "http://ww1.microchip.com/downloads/en/DeviceDoc/21945e.pdf" H 1750 7050 50  0001 L CNN
	1    1700 7600
	1    0    0    -1  
$EndComp
$Comp
L Potentiometer_Digital:MCP4021-xxxxSN LD3_V--1
U 1 1 5D22BB6E
P 1700 6550
F 0 "LD3_V--1" H 1700 7131 50  0000 C CNN
F 1 "MCP4021-xxxxSN" H 1700 7040 50  0000 C CNN
F 2 "Package_SO:SOIC-8_3.9x4.9mm_P1.27mm" H 1750 6300 50  0001 L CNN
F 3 "http://ww1.microchip.com/downloads/en/DeviceDoc/21945e.pdf" H 1750 6000 50  0001 L CNN
	1    1700 6550
	1    0    0    -1  
$EndComp
Wire Wire Line
	550  9950 1300 9950
Wire Wire Line
	850  10050 1300 10050
$Comp
L Device:D_Zener PQ6
U 1 1 5D1EA681
P 8750 12250
F 0 "PQ6" V 8796 12171 50  0000 R CNN
F 1 "D_Zener6" V 8705 12171 50  0000 R CNN
F 2 "Diode_THT:D_DO-41_SOD81_P2.54mm_Vertical_AnodeUp" H 8750 12250 50  0001 C CNN
F 3 "~" H 8750 12250 50  0001 C CNN
	1    8750 12250
	0    -1   -1   0   
$EndComp
$Comp
L Device:D_Zener PQ5
U 1 1 5D1F1178
P 8750 9900
F 0 "PQ5" V 8796 9821 50  0000 R CNN
F 1 "D_Zener5" V 8705 9821 50  0000 R CNN
F 2 "Diode_THT:D_DO-41_SOD81_P2.54mm_Vertical_AnodeUp" H 8750 9900 50  0001 C CNN
F 3 "~" H 8750 9900 50  0001 C CNN
	1    8750 9900
	0    -1   -1   0   
$EndComp
$Comp
L Device:D_Zener PQ4
U 1 1 5D20C5E4
P 8800 7850
F 0 "PQ4" V 8846 7771 50  0000 R CNN
F 1 "D_Zener4" V 8755 7771 50  0000 R CNN
F 2 "Diode_THT:D_DO-41_SOD81_P2.54mm_Vertical_AnodeUp" H 8800 7850 50  0001 C CNN
F 3 "~" H 8800 7850 50  0001 C CNN
	1    8800 7850
	0    -1   -1   0   
$EndComp
$Comp
L Device:D_Zener PQ3
U 1 1 5D227C7B
P 8800 5550
F 0 "PQ3" V 8846 5471 50  0000 R CNN
F 1 "D_Zener3" V 8755 5471 50  0000 R CNN
F 2 "Diode_THT:D_DO-41_SOD81_P2.54mm_Vertical_AnodeUp" H 8800 5550 50  0001 C CNN
F 3 "~" H 8800 5550 50  0001 C CNN
	1    8800 5550
	0    -1   -1   0   
$EndComp
$Comp
L Device:D_Zener PQ2
U 1 1 5D24329A
P 8750 3250
F 0 "PQ2" V 8796 3171 50  0000 R CNN
F 1 "D_Zener2" V 8705 3171 50  0000 R CNN
F 2 "Diode_THT:D_DO-41_SOD81_P2.54mm_Vertical_AnodeUp" H 8750 3250 50  0001 C CNN
F 3 "~" H 8750 3250 50  0001 C CNN
	1    8750 3250
	0    -1   -1   0   
$EndComp
Wire Wire Line
	8600 12100 8750 12100
Connection ~ 8600 12100
Wire Wire Line
	8750 12400 8750 12500
Connection ~ 8750 12500
Wire Wire Line
	8750 12500 10000 12500
Wire Wire Line
	8600 9600 8750 9600
Wire Wire Line
	8750 9600 8750 9750
Wire Wire Line
	8750 10050 8750 10300
Connection ~ 8750 10300
Wire Wire Line
	8750 10300 10000 10300
Wire Wire Line
	8600 7700 8800 7700
Wire Wire Line
	8800 8000 8800 8100
Connection ~ 8800 8100
Wire Wire Line
	8800 8100 10000 8100
Wire Wire Line
	8600 5400 8800 5400
Wire Wire Line
	8800 5700 8800 5800
Connection ~ 8800 5800
Wire Wire Line
	8800 5800 8200 5800
Wire Wire Line
	8600 3100 8750 3100
Wire Wire Line
	8750 3400 8750 3500
Connection ~ 8750 3500
Wire Wire Line
	8750 3500 10000 3500
Wire Wire Line
	8600 1500 8800 1500
Wire Wire Line
	8800 1800 8800 2000
Connection ~ 8800 2000
Wire Wire Line
	8800 2000 10000 2000
Text Notes 5600 11900 2    50   ~ 0
3.3V
Text Notes 5000 11900 2    50   ~ 0
GND
Wire Wire Line
	4750 12700 4750 12300
Wire Wire Line
	5000 12600 4725 12600
Wire Wire Line
	4725 12600 4725 11850
Wire Wire Line
	4725 11850 4975 11850
Wire Wire Line
	4700 13100 4700 11450
Wire Wire Line
	4700 11450 4975 11450
Wire Wire Line
	4650 13200 4650 11300
Wire Wire Line
	5700 13100 5700 11450
Wire Wire Line
	5700 11450 5475 11450
Wire Wire Line
	5925 13200 5925 11225
Wire Wire Line
	4575 11225 4575 11550
Wire Wire Line
	4575 11550 4975 11550
Wire Wire Line
	5500 12600 5500 11850
Wire Wire Line
	5500 11850 5475 11850
Wire Wire Line
	4650 11300 5750 11300
Wire Wire Line
	5750 11300 5750 11550
Wire Wire Line
	5750 11550 5475 11550
Wire Wire Line
	4575 11225 5925 11225
Wire Wire Line
	5500 13200 5925 13200
$Comp
L Connector_Generic:Conn_01x01 N3
U 1 1 5D79FD59
P 19800 9900
F 0 "N3" H 19755 9973 59  0000 L BNN
F 1 "3,81_1,4" H 19755 9770 59  0000 L BNN
F 2 "EPolo:MaleTerminal" H 19800 9900 50  0001 C CNN
F 3 "" H 19800 9900 50  0001 C CNN
	1    19800 9900
	0    1    1    0   
$EndComp
$Comp
L Connector_Generic:Conn_01x01 N5
U 1 1 5D7BFC1A
P 20125 9900
F 0 "N5" H 20080 9973 59  0000 L BNN
F 1 "3,81_1,4" H 20080 9770 59  0000 L BNN
F 2 "EPolo:MaleTerminal" H 20125 9900 50  0001 C CNN
F 3 "" H 20125 9900 50  0001 C CNN
	1    20125 9900
	0    1    1    0   
$EndComp
$Comp
L Connector_Generic:Conn_01x01 N2
U 1 1 5D7E00D4
P 19600 9425
F 0 "N2" H 19555 9498 59  0000 L BNN
F 1 "3,81_1,4" H 19555 9295 59  0000 L BNN
F 2 "EPolo:MaleTerminal" H 19600 9425 50  0001 C CNN
F 3 "" H 19600 9425 50  0001 C CNN
	1    19600 9425
	0    -1   -1   0   
$EndComp
$Comp
L Connector_Generic:Conn_01x01 N4
U 1 1 5D7FFEE4
P 20000 9425
F 0 "N4" H 19955 9498 59  0000 L BNN
F 1 "3,81_1,4" H 19955 9295 59  0000 L BNN
F 2 "EPolo:MaleTerminal" H 20000 9425 50  0001 C CNN
F 3 "" H 20000 9425 50  0001 C CNN
	1    20000 9425
	0    -1   -1   0   
$EndComp
Wire Wire Line
	19425 9700 19600 9700
Wire Wire Line
	19600 9700 19600 9625
Wire Wire Line
	19800 9700 19800 9625
Wire Wire Line
	19800 9625 19600 9625
Wire Wire Line
	19800 9725 20000 9725
Wire Wire Line
	20000 9725 20000 9625
Wire Wire Line
	20125 9700 20125 9625
Wire Wire Line
	20125 9625 20000 9625
Connection ~ 20000 9625
Wire Wire Line
	19800 9725 19800 9700
Connection ~ 19800 9700
Connection ~ 19600 9625
$Comp
L ePolo_Charger_new4_(1)-eagle-import:WIREPAD3,81_1,4 PE_LD4
U 1 1 5D9A95F2
P 1225 11825
F 0 "PE_LD4" H 1180 11898 59  0000 L BNN
F 1 "WIREPAD3,81_1,4" H 1180 11695 59  0000 L BNN
F 2 "EPolo:MaleTerminal" H 1225 11825 50  0001 C CNN
F 3 "" H 1225 11825 50  0001 C CNN
	1    1225 11825
	-1   0    0    1   
$EndComp
$Comp
L ePolo_Charger_new4_(1)-eagle-import:WIREPAD3,81_1,4 PE_LD3
U 1 1 5D9CB39D
P 1225 11525
F 0 "PE_LD3" H 1180 11598 59  0000 L BNN
F 1 "WIREPAD3,81_1,4" H 1180 11395 59  0000 L BNN
F 2 "EPolo:MaleTerminal" H 1225 11525 50  0001 C CNN
F 3 "" H 1225 11525 50  0001 C CNN
	1    1225 11525
	-1   0    0    1   
$EndComp
$Comp
L ePolo_Charger_new4_(1)-eagle-import:WIREPAD3,81_1,4 PE_LD2
U 1 1 5DA0E7A8
P 1225 11250
F 0 "PE_LD2" H 1180 11323 59  0000 L BNN
F 1 "WIREPAD3,81_1,4" H 1180 11120 59  0000 L BNN
F 2 "EPolo:MaleTerminal" H 1225 11250 50  0001 C CNN
F 3 "" H 1225 11250 50  0001 C CNN
	1    1225 11250
	-1   0    0    1   
$EndComp
$Comp
L ePolo_Charger_new4_(1)-eagle-import:WIREPAD3,81_1,4 PE_LD1
U 1 1 5DA2F885
P 1225 10950
F 0 "PE_LD1" H 1180 11023 59  0000 L BNN
F 1 "WIREPAD3,81_1,4" H 1180 10820 59  0000 L BNN
F 2 "EPolo:MaleTerminal" H 1225 10950 50  0001 C CNN
F 3 "" H 1225 10950 50  0001 C CNN
	1    1225 10950
	-1   0    0    1   
$EndComp
Wire Wire Line
	1000 12400 800  12400
Wire Wire Line
	800  10950 1125 10950
Connection ~ 1000 12400
Wire Wire Line
	1125 11250 800  11250
Connection ~ 800  11250
Wire Wire Line
	800  11250 800  10950
Wire Wire Line
	1125 11525 800  11525
Connection ~ 800  11525
Wire Wire Line
	800  11525 800  11250
Wire Wire Line
	1125 11825 800  11825
Wire Wire Line
	800  11525 800  11825
Connection ~ 800  11825
Wire Wire Line
	800  11825 800  12400
$Comp
L Device:D_Zener PQ1
U 1 1 5D25E89B
P 8800 1650
F 0 "PQ1" V 8846 1571 50  0000 R CNN
F 1 "D_Zener1" V 8755 1571 50  0000 R CNN
F 2 "Diode_THT:D_DO-41_SOD81_P2.54mm_Vertical_AnodeUp" H 8800 1650 50  0001 C CNN
F 3 "~" H 8800 1650 50  0001 C CNN
	1    8800 1650
	0    -1   -1   0   
$EndComp
$Comp
L Potentiometer_Digital:MCP4021-xxxxSN LD2_V--1
U 1 1 5D247C1D
P 1700 8750
F 0 "LD2_V--1" H 1700 9331 50  0000 C CNN
F 1 "MCP4021-xxxxSN" H 1700 9240 50  0000 C CNN
F 2 "Package_SO:SOIC-8_3.9x4.9mm_P1.27mm" H 1750 8500 50  0001 L CNN
F 3 "http://ww1.microchip.com/downloads/en/DeviceDoc/21945e.pdf" H 1750 8200 50  0001 L CNN
	1    1700 8750
	1    0    0    -1  
$EndComp
$Comp
L Potentiometer_Digital:MCP4021-xxxxSN LD4_V--1
U 1 1 5D2638C1
P 1700 9950
F 0 "LD4_V--1" H 1700 10531 50  0000 C CNN
F 1 "MCP4021-xxxxSN" H 1700 10440 50  0000 C CNN
F 2 "Package_SO:SOIC-8_3.9x4.9mm_P1.27mm" H 1750 9700 50  0001 L CNN
F 3 "http://ww1.microchip.com/downloads/en/DeviceDoc/21945e.pdf" H 1750 9400 50  0001 L CNN
	1    1700 9950
	1    0    0    -1  
$EndComp
$Comp
L Connector_Generic:Conn_01x01 LD1-PotA1
U 1 1 5D360472
P 2900 7400
F 0 "LD1-PotA1" H 2980 7442 50  0000 L CNN
F 1 "Conn_01x01" H 2980 7351 50  0000 L CNN
F 2 "Connector_PinHeader_2.54mm:PinHeader_1x01_P2.54mm_Vertical" H 2900 7400 50  0001 C CNN
F 3 "~" H 2900 7400 50  0001 C CNN
	1    2900 7400
	1    0    0    -1  
$EndComp
$Comp
L Connector_Generic:Conn_01x01 LD1-PotW1
U 1 1 5D360478
P 2900 7700
F 0 "LD1-PotW1" H 2980 7742 50  0000 L CNN
F 1 "Conn_01x01" H 2980 7651 50  0000 L CNN
F 2 "Connector_PinHeader_2.54mm:PinHeader_1x01_P2.54mm_Vertical" H 2900 7700 50  0001 C CNN
F 3 "~" H 2900 7700 50  0001 C CNN
	1    2900 7700
	1    0    0    -1  
$EndComp
$Comp
L Connector_Generic:Conn_01x01 LD2-PotA1
U 1 1 5D31D4E6
P 2850 8550
F 0 "LD2-PotA1" H 2930 8592 50  0000 L CNN
F 1 "Conn_01x01" H 2930 8501 50  0000 L CNN
F 2 "Connector_PinHeader_2.54mm:PinHeader_1x01_P2.54mm_Vertical" H 2850 8550 50  0001 C CNN
F 3 "~" H 2850 8550 50  0001 C CNN
	1    2850 8550
	1    0    0    -1  
$EndComp
$Comp
L Connector_Generic:Conn_01x01 LD2-PotW1
U 1 1 5D32DA0E
P 2850 8850
F 0 "LD2-PotW1" H 2930 8892 50  0000 L CNN
F 1 "Conn_01x01" H 2930 8801 50  0000 L CNN
F 2 "Connector_PinHeader_2.54mm:PinHeader_1x01_P2.54mm_Vertical" H 2850 8850 50  0001 C CNN
F 3 "~" H 2850 8850 50  0001 C CNN
	1    2850 8850
	1    0    0    -1  
$EndComp
$Comp
L Connector_Generic:Conn_01x01 LD4-PotA1
U 1 1 5D30C179
P 2850 9750
F 0 "LD4-PotA1" H 2930 9792 50  0000 L CNN
F 1 "Conn_01x01" H 2930 9701 50  0000 L CNN
F 2 "Connector_PinHeader_2.54mm:PinHeader_1x01_P2.54mm_Vertical" H 2850 9750 50  0001 C CNN
F 3 "~" H 2850 9750 50  0001 C CNN
	1    2850 9750
	1    0    0    -1  
$EndComp
$Comp
L Connector_Generic:Conn_01x01 LD4-PotW1
U 1 1 5D30CDA0
P 2850 10000
F 0 "LD4-PotW1" H 2930 10042 50  0000 L CNN
F 1 "Conn_01x01" H 2930 9951 50  0000 L CNN
F 2 "Connector_PinHeader_2.54mm:PinHeader_1x01_P2.54mm_Vertical" H 2850 10000 50  0001 C CNN
F 3 "~" H 2850 10000 50  0001 C CNN
	1    2850 10000
	1    0    0    -1  
$EndComp
$Comp
L Connector_Generic:Conn_02x05_Odd_Even UEXT1
U 1 1 5D1AD0E4
P 5275 11650
F 0 "UEXT1" H 5325 11225 50  0000 C CNN
F 1 "Conn_02x05_Odd_Even" H 5325 11316 50  0000 C CNN
F 2 "Connector_PinHeader_2.54mm:PinHeader_2x05_P2.54mm_Vertical" H 5275 11650 50  0001 C CNN
F 3 "~" H 5275 11650 50  0001 C CNN
	1    5275 11650
	-1   0    0    1   
$EndComp
$Comp
L Connector_Generic:Conn_01x01 CP1
U 1 1 6513287B
P 1700 12200
F 0 "CP1" H 1655 12273 59  0000 L BNN
F 1 "WIREPAD3,81_1,4" H 1655 12070 59  0000 L BNN
F 2 "EPolo:MaleTerminal" H 1700 12200 50  0001 C CNN
F 3 "" H 1700 12200 50  0001 C CNN
	1    1700 12200
	0    -1   -1   0   
$EndComp
$Comp
L ePolo_Charger_new4_(1)-eagle-import:WIREPAD3,81_1,4 PP1
U 1 1 7D805056
P 1300 12300
F 0 "PP1" H 1255 12373 59  0000 L BNN
F 1 "WIREPAD3,81_1,4" H 1255 12170 59  0000 L BNN
F 2 "EPolo:MaleTerminal" H 1300 12300 50  0001 C CNN
F 3 "" H 1300 12300 50  0001 C CNN
	1    1300 12300
	0    1    1    0   
$EndComp
$Comp
L ePolo_Charger_new4_(1)-eagle-import:WIREPAD3,81_1,4 PE_CP/PP1
U 1 1 027DA839
P 1000 12300
F 0 "PE_CP/PP1" H 955 12373 59  0000 L BNN
F 1 "WIREPAD3,81_1,4" H 955 12170 59  0000 L BNN
F 2 "EPolo:MaleTerminal" H 1000 12300 50  0001 C CNN
F 3 "" H 1000 12300 50  0001 C CNN
	1    1000 12300
	0    1    1    0   
$EndComp
$Comp
L Connector_Generic:Conn_01x01 CAR12V1
U 1 1 5BBAD29D
P 9500 800
F 0 "CAR12V1" H 9455 873 59  0000 L BNN
F 1 "3,81_1,4" H 9455 670 59  0000 L BNN
F 2 "EPolo:MaleTerminal" H 9500 800 50  0001 C CNN
F 3 "" H 9500 800 50  0001 C CNN
	1    9500 800 
	0    -1   -1   0   
$EndComp
$Comp
L Connector_Generic:Conn_01x01 CARGND1
U 1 1 902BA180
P 8600 800
F 0 "CARGND1" H 8555 873 59  0000 L BNN
F 1 "3,81_1,4" H 8555 670 59  0000 L BNN
F 2 "EPolo:MaleTerminal" H 8600 800 50  0001 C CNN
F 3 "" H 8600 800 50  0001 C CNN
	1    8600 800 
	0    -1   -1   0   
$EndComp
$Comp
L Connector_Generic:Conn_01x01 LD3-PotW1
U 1 1 5D370FF9
P 2900 6650
F 0 "LD3-PotW1" H 2980 6692 50  0000 L CNN
F 1 "Conn_01x01" H 2980 6601 50  0000 L CNN
F 2 "Connector_PinHeader_2.54mm:PinHeader_1x01_P2.54mm_Vertical" H 2900 6650 50  0001 C CNN
F 3 "~" H 2900 6650 50  0001 C CNN
	1    2900 6650
	1    0    0    -1  
$EndComp
$Comp
L Connector_Generic:Conn_01x01 LD3-PotA1
U 1 1 5D370FF3
P 2900 6350
F 0 "LD3-PotA1" H 2980 6392 50  0000 L CNN
F 1 "Conn_01x01" H 2980 6301 50  0000 L CNN
F 2 "Connector_PinHeader_2.54mm:PinHeader_1x01_P2.54mm_Vertical" H 2900 6350 50  0001 C CNN
F 3 "~" H 2900 6350 50  0001 C CNN
	1    2900 6350
	1    0    0    -1  
$EndComp
Wire Wire Line
	6500 9800 6500 13400
Wire Wire Line
	6300 13300 6300 7900
$EndSCHEMATC
