(export (version D)
  (design
    (source D:\Uni\ePolo\Charger_Electrics\Charger_V0.2\ePolo_Charger.sch)
    (date "29.06.2019 18:23:12")
    (tool "Eeschema (5.1.2)-2")
    (sheet (number 1) (name /) (tstamps /)
      (title_block
        (title)
        (company)
        (rev)
        (date)
        (source ePolo_Charger.sch)
        (comment (number 1) (value ""))
        (comment (number 2) (value ""))
        (comment (number 3) (value ""))
        (comment (number 4) (value "")))))
  (components
    (comp (ref STMPINS2)
      (value PINHD-2X22)
      (footprint Connector_PinHeader_2.54mm:PinHeader_2x22_P2.54mm_Vertical)
      (libsource (lib Connector_Generic) (part Conn_02x22_Odd_Even) (description "Generic connector, double row, 02x22, odd/even pin numbering scheme (row 1 odd numbers, row 2 even numbers), script generated (kicad-library-utils/schlib/autogen/connector/)"))
      (sheetpath (names /) (tstamps /))
      (tstamp A5272E11))
    (comp (ref LD1)
      (value 3,81_1,1)
      (footprint EPolo:MaleTerminal)
      (libsource (lib Connector_Generic) (part Conn_01x01) (description "Generic connector, single row, 01x01, script generated (kicad-library-utils/schlib/autogen/connector/)"))
      (sheetpath (names /) (tstamps /))
      (tstamp 4E937A22))
    (comp (ref LD2)
      (value 3,81_1,1)
      (footprint EPolo:MaleTerminal)
      (libsource (lib Connector_Generic) (part Conn_01x01) (description "Generic connector, single row, 01x01, script generated (kicad-library-utils/schlib/autogen/connector/)"))
      (sheetpath (names /) (tstamps /))
      (tstamp 9F05FC0D))
    (comp (ref LD4)
      (value 3,81_1,1)
      (footprint EPolo:MaleTerminal)
      (libsource (lib Connector_Generic) (part Conn_01x01) (description "Generic connector, single row, 01x01, script generated (kicad-library-utils/schlib/autogen/connector/)"))
      (sheetpath (names /) (tstamps /))
      (tstamp E38DF8DC))
    (comp (ref LD3)
      (value 3,81_1,1)
      (footprint EPolo:MaleTerminal)
      (libsource (lib Connector_Generic) (part Conn_01x01) (description "Generic connector, single row, 01x01, script generated (kicad-library-utils/schlib/autogen/connector/)"))
      (sheetpath (names /) (tstamps /))
      (tstamp B8DCA528))
    (comp (ref PH1)
      (value 3,81_1,4)
      (footprint EPolo:MaleTerminal)
      (libsource (lib Connector_Generic) (part Conn_01x01) (description "Generic connector, single row, 01x01, script generated (kicad-library-utils/schlib/autogen/connector/)"))
      (sheetpath (names /) (tstamps /))
      (tstamp 263833D1))
    (comp (ref PH2)
      (value 3,81_1,4)
      (footprint EPolo:MaleTerminal)
      (libsource (lib Connector_Generic) (part Conn_01x01) (description "Generic connector, single row, 01x01, script generated (kicad-library-utils/schlib/autogen/connector/)"))
      (sheetpath (names /) (tstamps /))
      (tstamp 34F05650))
    (comp (ref I_PH3)
      (value ACS758)
      (footprint Sensor_Current:Allegro_CB_PFF)
      (libsource (lib Sensor_Current) (part ACS758xCB-050B-PFF) (description "±50A Bidirectional Hall-Effect Current Sensor, +5.0V supply, 40mV/A, CB-5 PFF"))
      (sheetpath (names /) (tstamps /))
      (tstamp E57833A7))
    (comp (ref N1)
      (value 3,81_1,4)
      (footprint EPolo:MaleTerminal)
      (libsource (lib Connector_Generic) (part Conn_01x01) (description "Generic connector, single row, 01x01, script generated (kicad-library-utils/schlib/autogen/connector/)"))
      (sheetpath (names /) (tstamps /))
      (tstamp E75B3009))
    (comp (ref D1)
      (value ES2D)
      (footprint Diode_SMD:D_0805_2012Metric)
      (libsource (lib Diode) (part 1N4004) (description "400V 1A General Purpose Rectifier Diode, DO-41"))
      (sheetpath (names /) (tstamps /))
      (tstamp 8D141E84))
    (comp (ref R13)
      (value 2,7k)
      (footprint Resistor_SMD:R_0603_1608Metric)
      (libsource (lib Device) (part R) (description Resistor))
      (sheetpath (names /) (tstamps /))
      (tstamp 0D61857A))
    (comp (ref PE1)
      (value WIREPAD3,81_1,4)
      (footprint EPolo:MaleTerminal)
      (libsource (lib "ePolo_Charger_new4_(1)-eagle-import") (part WIREPAD3,81_1,4) (description ""))
      (sheetpath (names /) (tstamps /))
      (tstamp 027DA839))
    (comp (ref PP1)
      (value WIREPAD3,81_1,4)
      (footprint EPolo:MaleTerminal)
      (libsource (lib "ePolo_Charger_new4_(1)-eagle-import") (part WIREPAD3,81_1,4) (description ""))
      (sheetpath (names /) (tstamps /))
      (tstamp 7D805056))
    (comp (ref CP1)
      (value WIREPAD3,81_1,4)
      (footprint EPolo:MaleTerminal)
      (libsource (lib Connector_Generic) (part Conn_01x01) (description "Generic connector, single row, 01x01, script generated (kicad-library-utils/schlib/autogen/connector/)"))
      (sheetpath (names /) (tstamps /))
      (tstamp 6513287B))
    (comp (ref R14)
      (value 0,68k)
      (footprint Resistor_SMD:R_0603_1608Metric)
      (libsource (lib Device) (part R) (description Resistor))
      (sheetpath (names /) (tstamps /))
      (tstamp 45173FA4))
    (comp (ref R15)
      (value 0,88k)
      (footprint Resistor_SMD:R_0603_1608Metric)
      (libsource (lib Device) (part R) (description Resistor))
      (sheetpath (names /) (tstamps /))
      (tstamp 4FD7CBCD))
    (comp (ref R17)
      (value 0,2k)
      (footprint Resistor_SMD:R_0603_1608Metric)
      (libsource (lib Device) (part R) (description Resistor))
      (sheetpath (names /) (tstamps /))
      (tstamp F5826C69))
    (comp (ref R19)
      (value 0,2k)
      (footprint Resistor_SMD:R_0603_1608Metric)
      (libsource (lib Device) (part R) (description Resistor))
      (sheetpath (names /) (tstamps /))
      (tstamp 47AF1279))
    (comp (ref OK1)
      (value ILD2)
      (footprint Package_SO:SOIC-8_3.9x4.9mm_P1.27mm)
      (libsource (lib Isolator) (part ILD74) (description "Dual Optocoupler, NPN Phototransistor Output, TTL compatible, DIP8/SMD8"))
      (sheetpath (names /) (tstamps /))
      (tstamp 3915DF78))
    (comp (ref CARGND1)
      (value 3,81_1,4)
      (footprint EPolo:MaleTerminal)
      (libsource (lib Connector_Generic) (part Conn_01x01) (description "Generic connector, single row, 01x01, script generated (kicad-library-utils/schlib/autogen/connector/)"))
      (sheetpath (names /) (tstamps /))
      (tstamp 902BA180))
    (comp (ref Q1)
      (value BSS123)
      (footprint Package_TO_SOT_SMD:SOT-23)
      (libsource (lib Transistor_FET) (part BSS123) (description "0.17A Id, 100V Vds, N-Channel MOSFET, SOT-23"))
      (sheetpath (names /) (tstamps /))
      (tstamp 7A211019))
    (comp (ref Q2)
      (value BSS123)
      (footprint Package_TO_SOT_SMD:SOT-23)
      (libsource (lib Transistor_FET) (part BSS123) (description "0.17A Id, 100V Vds, N-Channel MOSFET, SOT-23"))
      (sheetpath (names /) (tstamps /))
      (tstamp DA191B3C))
    (comp (ref Q3)
      (value BSS123)
      (footprint Package_TO_SOT_SMD:SOT-23)
      (libsource (lib Transistor_FET) (part BSS123) (description "0.17A Id, 100V Vds, N-Channel MOSFET, SOT-23"))
      (sheetpath (names /) (tstamps /))
      (tstamp A3E817C2))
    (comp (ref Q5)
      (value BSS123)
      (footprint Package_TO_SOT_SMD:SOT-23)
      (libsource (lib Transistor_FET) (part BSS123) (description "0.17A Id, 100V Vds, N-Channel MOSFET, SOT-23"))
      (sheetpath (names /) (tstamps /))
      (tstamp 2EFB3759))
    (comp (ref Q6)
      (value BSS123)
      (footprint Package_TO_SOT_SMD:SOT-23)
      (libsource (lib Transistor_FET) (part BSS123) (description "0.17A Id, 100V Vds, N-Channel MOSFET, SOT-23"))
      (sheetpath (names /) (tstamps /))
      (tstamp A7ECA7AB))
    (comp (ref Q4)
      (value BSS123)
      (footprint Package_TO_SOT_SMD:SOT-23)
      (libsource (lib Transistor_FET) (part BSS123) (description "0.17A Id, 100V Vds, N-Channel MOSFET, SOT-23"))
      (sheetpath (names /) (tstamps /))
      (tstamp 323115D8))
    (comp (ref PH3)
      (value 3,81_1,4)
      (footprint EPolo:MaleTerminal)
      (libsource (lib Connector_Generic) (part Conn_01x01) (description "Generic connector, single row, 01x01, script generated (kicad-library-utils/schlib/autogen/connector/)"))
      (sheetpath (names /) (tstamps /))
      (tstamp 32C71CCA))
    (comp (ref I_PH2)
      (value ACS758)
      (footprint Sensor_Current:Allegro_CB_PFF)
      (libsource (lib Sensor_Current) (part ACS758xCB-050B-PFF) (description "±50A Bidirectional Hall-Effect Current Sensor, +5.0V supply, 40mV/A, CB-5 PFF"))
      (sheetpath (names /) (tstamps /))
      (tstamp 5D30098B))
    (comp (ref I_PH1)
      (value ACS758)
      (footprint Sensor_Current:Allegro_CB_PFF)
      (libsource (lib Sensor_Current) (part ACS758xCB-050B-PFF) (description "±50A Bidirectional Hall-Effect Current Sensor, +5.0V supply, 40mV/A, CB-5 PFF"))
      (sheetpath (names /) (tstamps /))
      (tstamp 5D30795E))
    (comp (ref CAR12V1)
      (value 3,81_1,4)
      (footprint EPolo:MaleTerminal)
      (libsource (lib Connector_Generic) (part Conn_01x01) (description "Generic connector, single row, 01x01, script generated (kicad-library-utils/schlib/autogen/connector/)"))
      (sheetpath (names /) (tstamps /))
      (tstamp 5BBAD29D))
    (comp (ref LD4_V--1)
      (value MCP4021-xxxxMS)
      (footprint Package_SO:MSOP-8_3x3mm_P0.65mm)
      (datasheet http://ww1.microchip.com/downloads/en/DeviceDoc/21945e.pdf)
      (libsource (lib Potentiometer_Digital) (part MCP4021-xxxxMS) (description "Low-Cost 64-Step Digital Potentiometer with WiperLock™ Technology, MSOP-8"))
      (sheetpath (names /) (tstamps /))
      (tstamp 5D253FB1))
    (comp (ref LD2_V--1)
      (value MCP4021-xxxxMS)
      (footprint Package_SO:MSOP-8_3x3mm_P0.65mm)
      (datasheet http://ww1.microchip.com/downloads/en/DeviceDoc/21945e.pdf)
      (libsource (lib Potentiometer_Digital) (part MCP4021-xxxxMS) (description "Low-Cost 64-Step Digital Potentiometer with WiperLock™ Technology, MSOP-8"))
      (sheetpath (names /) (tstamps /))
      (tstamp 5D262083))
    (comp (ref LD1_V--1)
      (value MCP4021-xxxxMS)
      (footprint Package_SO:MSOP-8_3x3mm_P0.65mm)
      (datasheet http://ww1.microchip.com/downloads/en/DeviceDoc/21945e.pdf)
      (libsource (lib Potentiometer_Digital) (part MCP4021-xxxxMS) (description "Low-Cost 64-Step Digital Potentiometer with WiperLock™ Technology, MSOP-8"))
      (sheetpath (names /) (tstamps /))
      (tstamp 5D26FDD8))
    (comp (ref LD3_V--1)
      (value MCP4021-xxxxMS)
      (footprint Package_SO:MSOP-8_3x3mm_P0.65mm)
      (datasheet http://ww1.microchip.com/downloads/en/DeviceDoc/21945e.pdf)
      (libsource (lib Potentiometer_Digital) (part MCP4021-xxxxMS) (description "Low-Cost 64-Step Digital Potentiometer with WiperLock™ Technology, MSOP-8"))
      (sheetpath (names /) (tstamps /))
      (tstamp 5D27DE20))
    (comp (ref LD4-PotA1)
      (value Conn_01x01)
      (footprint Connector_PinHeader_2.54mm:PinHeader_1x01_P2.54mm_Vertical)
      (datasheet ~)
      (libsource (lib Connector_Generic) (part Conn_01x01) (description "Generic connector, single row, 01x01, script generated (kicad-library-utils/schlib/autogen/connector/)"))
      (sheetpath (names /) (tstamps /))
      (tstamp 5D30C179))
    (comp (ref LD4-PotW1)
      (value Conn_01x01)
      (footprint Connector_PinHeader_2.54mm:PinHeader_1x01_P2.54mm_Vertical)
      (datasheet ~)
      (libsource (lib Connector_Generic) (part Conn_01x01) (description "Generic connector, single row, 01x01, script generated (kicad-library-utils/schlib/autogen/connector/)"))
      (sheetpath (names /) (tstamps /))
      (tstamp 5D30CDA0))
    (comp (ref LD2-PotA1)
      (value Conn_01x01)
      (footprint Connector_PinHeader_2.54mm:PinHeader_1x01_P2.54mm_Vertical)
      (datasheet ~)
      (libsource (lib Connector_Generic) (part Conn_01x01) (description "Generic connector, single row, 01x01, script generated (kicad-library-utils/schlib/autogen/connector/)"))
      (sheetpath (names /) (tstamps /))
      (tstamp 5D31D4E6))
    (comp (ref LD2-PotW1)
      (value Conn_01x01)
      (footprint Connector_PinHeader_2.54mm:PinHeader_1x01_P2.54mm_Vertical)
      (datasheet ~)
      (libsource (lib Connector_Generic) (part Conn_01x01) (description "Generic connector, single row, 01x01, script generated (kicad-library-utils/schlib/autogen/connector/)"))
      (sheetpath (names /) (tstamps /))
      (tstamp 5D32DA0E))
    (comp (ref LD1-PotA1)
      (value Conn_01x01)
      (footprint Connector_PinHeader_2.54mm:PinHeader_1x01_P2.54mm_Vertical)
      (datasheet ~)
      (libsource (lib Connector_Generic) (part Conn_01x01) (description "Generic connector, single row, 01x01, script generated (kicad-library-utils/schlib/autogen/connector/)"))
      (sheetpath (names /) (tstamps /))
      (tstamp 5D360472))
    (comp (ref LD1-PotW1)
      (value Conn_01x01)
      (footprint Connector_PinHeader_2.54mm:PinHeader_1x01_P2.54mm_Vertical)
      (datasheet ~)
      (libsource (lib Connector_Generic) (part Conn_01x01) (description "Generic connector, single row, 01x01, script generated (kicad-library-utils/schlib/autogen/connector/)"))
      (sheetpath (names /) (tstamps /))
      (tstamp 5D360478))
    (comp (ref LD3-PotA1)
      (value Conn_01x01)
      (footprint Connector_PinHeader_2.54mm:PinHeader_1x01_P2.54mm_Vertical)
      (datasheet ~)
      (libsource (lib Connector_Generic) (part Conn_01x01) (description "Generic connector, single row, 01x01, script generated (kicad-library-utils/schlib/autogen/connector/)"))
      (sheetpath (names /) (tstamps /))
      (tstamp 5D370FF3))
    (comp (ref LD3-PotW1)
      (value Conn_01x01)
      (footprint Connector_PinHeader_2.54mm:PinHeader_1x01_P2.54mm_Vertical)
      (datasheet ~)
      (libsource (lib Connector_Generic) (part Conn_01x01) (description "Generic connector, single row, 01x01, script generated (kicad-library-utils/schlib/autogen/connector/)"))
      (sheetpath (names /) (tstamps /))
      (tstamp 5D370FF9))
    (comp (ref STMPINS1)
      (value PINHD-2X22)
      (footprint Connector_PinHeader_2.54mm:PinHeader_2x22_P2.54mm_Vertical)
      (libsource (lib Connector_Generic) (part Conn_02x22_Odd_Even) (description "Generic connector, double row, 02x22, odd/even pin numbering scheme (row 1 odd numbers, row 2 even numbers), script generated (kicad-library-utils/schlib/autogen/connector/)"))
      (sheetpath (names /) (tstamps /))
      (tstamp F614B1C3))
    (comp (ref PH1-LD1)
      (value OMRON_G7L-2A-P)
      (footprint EPolo:G7L-2A-P)
      (libsource (lib Epolo) (part OMRON_G7L-2A-P) (description ""))
      (sheetpath (names /) (tstamps /))
      (tstamp 5D7358B1))
    (comp (ref PH1-LD2)
      (value OMRON_G7L-2A-P)
      (footprint EPolo:G7L-2A-P)
      (libsource (lib Epolo) (part OMRON_G7L-2A-P) (description ""))
      (sheetpath (names /) (tstamps /))
      (tstamp 5D751562))
    (comp (ref PH2-LD2)
      (value OMRON_G7L-2A-P)
      (footprint EPolo:G7L-2A-P)
      (libsource (lib Epolo) (part OMRON_G7L-2A-P) (description ""))
      (sheetpath (names /) (tstamps /))
      (tstamp 5D76AC9F))
    (comp (ref PH2-LD3)
      (value OMRON_G7L-2A-P)
      (footprint EPolo:G7L-2A-P)
      (libsource (lib Epolo) (part OMRON_G7L-2A-P) (description ""))
      (sheetpath (names /) (tstamps /))
      (tstamp 5D79E734))
    (comp (ref PH3-LD3)
      (value OMRON_G7L-2A-P)
      (footprint EPolo:G7L-2A-P)
      (libsource (lib Epolo) (part OMRON_G7L-2A-P) (description ""))
      (sheetpath (names /) (tstamps /))
      (tstamp 5D7B7CAF))
    (comp (ref PH3-LD4)
      (value OMRON_G7L-2A-P)
      (footprint EPolo:G7L-2A-P)
      (libsource (lib Epolo) (part OMRON_G7L-2A-P) (description ""))
      (sheetpath (names /) (tstamps /))
      (tstamp 5D7D1536)))
  (libparts
    (libpart (lib Connector_Generic) (part Conn_01x01)
      (description "Generic connector, single row, 01x01, script generated (kicad-library-utils/schlib/autogen/connector/)")
      (docs ~)
      (footprints
        (fp Connector*:*))
      (fields
        (field (name Reference) J)
        (field (name Value) Conn_01x01))
      (pins
        (pin (num 1) (name Pin_1) (type passive))))
    (libpart (lib Connector_Generic) (part Conn_02x22_Odd_Even)
      (description "Generic connector, double row, 02x22, odd/even pin numbering scheme (row 1 odd numbers, row 2 even numbers), script generated (kicad-library-utils/schlib/autogen/connector/)")
      (docs ~)
      (footprints
        (fp Connector*:*_2x??_*))
      (fields
        (field (name Reference) J)
        (field (name Value) Conn_02x22_Odd_Even))
      (pins
        (pin (num 1) (name Pin_1) (type passive))
        (pin (num 2) (name Pin_2) (type passive))
        (pin (num 3) (name Pin_3) (type passive))
        (pin (num 4) (name Pin_4) (type passive))
        (pin (num 5) (name Pin_5) (type passive))
        (pin (num 6) (name Pin_6) (type passive))
        (pin (num 7) (name Pin_7) (type passive))
        (pin (num 8) (name Pin_8) (type passive))
        (pin (num 9) (name Pin_9) (type passive))
        (pin (num 10) (name Pin_10) (type passive))
        (pin (num 11) (name Pin_11) (type passive))
        (pin (num 12) (name Pin_12) (type passive))
        (pin (num 13) (name Pin_13) (type passive))
        (pin (num 14) (name Pin_14) (type passive))
        (pin (num 15) (name Pin_15) (type passive))
        (pin (num 16) (name Pin_16) (type passive))
        (pin (num 17) (name Pin_17) (type passive))
        (pin (num 18) (name Pin_18) (type passive))
        (pin (num 19) (name Pin_19) (type passive))
        (pin (num 20) (name Pin_20) (type passive))
        (pin (num 21) (name Pin_21) (type passive))
        (pin (num 22) (name Pin_22) (type passive))
        (pin (num 23) (name Pin_23) (type passive))
        (pin (num 24) (name Pin_24) (type passive))
        (pin (num 25) (name Pin_25) (type passive))
        (pin (num 26) (name Pin_26) (type passive))
        (pin (num 27) (name Pin_27) (type passive))
        (pin (num 28) (name Pin_28) (type passive))
        (pin (num 29) (name Pin_29) (type passive))
        (pin (num 30) (name Pin_30) (type passive))
        (pin (num 31) (name Pin_31) (type passive))
        (pin (num 32) (name Pin_32) (type passive))
        (pin (num 33) (name Pin_33) (type passive))
        (pin (num 34) (name Pin_34) (type passive))
        (pin (num 35) (name Pin_35) (type passive))
        (pin (num 36) (name Pin_36) (type passive))
        (pin (num 37) (name Pin_37) (type passive))
        (pin (num 38) (name Pin_38) (type passive))
        (pin (num 39) (name Pin_39) (type passive))
        (pin (num 40) (name Pin_40) (type passive))
        (pin (num 41) (name Pin_41) (type passive))
        (pin (num 42) (name Pin_42) (type passive))
        (pin (num 43) (name Pin_43) (type passive))
        (pin (num 44) (name Pin_44) (type passive))))
    (libpart (lib Device) (part R)
      (description Resistor)
      (docs ~)
      (footprints
        (fp R_*))
      (fields
        (field (name Reference) R)
        (field (name Value) R))
      (pins
        (pin (num 1) (name ~) (type passive))
        (pin (num 2) (name ~) (type passive))))
    (libpart (lib Diode) (part 1N4001)
      (aliases
        (alias 1N4002)
        (alias 1N4003)
        (alias 1N4004)
        (alias 1N4005)
        (alias 1N4006)
        (alias 1N4007)
        (alias BA157)
        (alias BA158)
        (alias BA159))
      (description "50V 1A General Purpose Rectifier Diode, DO-41")
      (docs http://www.vishay.com/docs/88503/1n4001.pdf)
      (footprints
        (fp D*DO?41*))
      (fields
        (field (name Reference) D)
        (field (name Value) 1N4001)
        (field (name Footprint) Diode_THT:D_DO-41_SOD81_P10.16mm_Horizontal))
      (pins
        (pin (num 1) (name K) (type passive))
        (pin (num 2) (name A) (type passive))))
    (libpart (lib Epolo) (part OMRON_G7L-2A-P)
      (fields
        (field (name Reference) G7L-2A-P)
        (field (name Value) OMRON_G7L-2A-P))
      (pins
        (pin (num 0) (name COIL_1) (type power_in))
        (pin (num 1) (name COIL_2) (type power_in))
        (pin (num 2) (name ARMATURE1_1) (type power_in))
        (pin (num 4) (name ARMATURE1_2) (type power_in))
        (pin (num 6) (name ARMATURE2_1) (type power_in))
        (pin (num 8) (name ARMATURE2_2) (type power_in))))
    (libpart (lib Isolator) (part ILD74)
      (description "Dual Optocoupler, NPN Phototransistor Output, TTL compatible, DIP8/SMD8")
      (docs https://www.vishay.com/docs/83640/ild74.pdf)
      (footprints
        (fp DIP*W7.62mm*)
        (fp DIP*W10.16mm*)
        (fp SMDIP*W9.53mm*Clearance8mm*))
      (fields
        (field (name Reference) U)
        (field (name Value) ILD74))
      (pins
        (pin (num 1) (name ~) (type passive))
        (pin (num 2) (name ~) (type passive))
        (pin (num 3) (name ~) (type passive))
        (pin (num 4) (name ~) (type passive))
        (pin (num 5) (name ~) (type passive))
        (pin (num 6) (name ~) (type passive))
        (pin (num 7) (name ~) (type passive))
        (pin (num 8) (name ~) (type passive))))
    (libpart (lib Potentiometer_Digital) (part MCP4011-xxxxMS)
      (aliases
        (alias MCP4021-xxxxMS))
      (description "Low-Cost 64-Step Volatile Digital Potentiometer")
      (docs "http://ww1.microchip.com/downloads/en/DeviceDoc/21978c.pdf, MSOP-8")
      (footprints
        (fp MSOP*3x3mm*P0.65mm*))
      (fields
        (field (name Reference) U)
        (field (name Value) MCP4011-xxxxMS)
        (field (name Footprint) Package_SO:MSOP-8_3x3mm_P0.65mm))
      (pins
        (pin (num 1) (name VDD) (type power_in))
        (pin (num 2) (name VSS) (type power_in))
        (pin (num 3) (name A) (type passive))
        (pin (num 4) (name W) (type passive))
        (pin (num 5) (name ~CS) (type input))
        (pin (num 6) (name B) (type passive))
        (pin (num 7) (name NC) (type NotConnected))
        (pin (num 8) (name U/~D) (type input))))
    (libpart (lib Sensor_Current) (part ACS756xCB-050B-PFF)
      (aliases
        (alias ACS756xCB-100B-PFF)
        (alias ACS758xCB-050B-PFF)
        (alias ACS758xCB-050U-PFF)
        (alias ACS758xCB-100B-PFF)
        (alias ACS758xCB-100U-PFF)
        (alias ACS758xCB-150B-PFF)
        (alias ACS758xCB-150U-PFF)
        (alias ACS758xCB-200B-PFF)
        (alias ACS758xCB-200U-PFF)
        (alias ACS759xCB-050B-PFF)
        (alias ACS759xCB-100B-PFF)
        (alias ACS759xCB-150B-PFF)
        (alias ACS759xCB-200B-PFF)
        (alias ACS770xCB-050B-PFF)
        (alias ACS770xCB-050U-PFF)
        (alias ACS770xCB-100B-PFF)
        (alias ACS770xCB-100U-PFF)
        (alias ACS770xCB-150B-PFF)
        (alias ACS770xCB-150U-PFF)
        (alias ACS770xCB-200B-PFF)
        (alias ACS770xCB-200U-PFF))
      (description "±50A Bidirectional Hall-Effect Current Sensor, +5.0V supply, 40mV/A, CB-5 PFF")
      (docs http://www.allegromicro.com/~/media/Files/Datasheets/ACS756-Datasheet.ashx?la=en)
      (footprints
        (fp Allegro*CB*PFF*))
      (fields
        (field (name Reference) U)
        (field (name Value) ACS756xCB-050B-PFF)
        (field (name Footprint) Sensor_Current:Allegro_CB_PFF))
      (pins
        (pin (num 1) (name VCC) (type power_in))
        (pin (num 2) (name GND) (type power_in))
        (pin (num 3) (name VIOUT) (type output))
        (pin (num 4) (name IP+) (type passive))
        (pin (num 5) (name IP-) (type passive))))
    (libpart (lib Transistor_FET) (part BSS138)
      (aliases
        (alias 2N7002)
        (alias 2N7002E)
        (alias 2N7002H)
        (alias 2N7002K)
        (alias BS170F)
        (alias BS870)
        (alias BSN20)
        (alias BSS123)
        (alias BSS127S)
        (alias DMG2302U)
        (alias DMG3402L)
        (alias DMG3404L)
        (alias DMG3406L)
        (alias DMG3414U)
        (alias DMG3418L)
        (alias DMN10H220L)
        (alias DMN10H700S)
        (alias DMN13H750S)
        (alias DMN2041L)
        (alias DMN2050L)
        (alias DMN2056U)
        (alias DMN2058U)
        (alias DMN2075U)
        (alias DMN2230U)
        (alias DMN24H11DS)
        (alias DMN24H3D5L)
        (alias DMN3042L)
        (alias DMN3051L)
        (alias DMN30H4D0L)
        (alias DMN3110S)
        (alias DMN3150L)
        (alias DMN3300U)
        (alias DMN3404L)
        (alias DMN6075S)
        (alias DMN6140L)
        (alias DMN67D7L)
        (alias DMN67D8L)
        (alias MMBF170)
        (alias VN10LF)
        (alias ZVN3306F)
        (alias ZVN3310F)
        (alias ZVN3320F)
        (alias ZVN4106F)
        (alias ZXM61N02F)
        (alias ZXM61N03F)
        (alias ZXMN10A07F)
        (alias ZXMN2A01F)
        (alias ZXMN2A14F)
        (alias ZXMN2B01F)
        (alias ZXMN2B14FH)
        (alias ZXMN2F30FH)
        (alias ZXMN2F34FH)
        (alias ZXMN3A01F)
        (alias ZXMN3A14F)
        (alias ZXMN3B01F)
        (alias ZXMN3B14F)
        (alias ZXMN3F30FH)
        (alias ZXMN6A07F)
        (alias IRLML2060))
      (description "50V Vds, 0.22A Id, N-Channel MOSFET, SOT-23")
      (docs https://www.fairchildsemi.com/datasheets/BS/BSS138.pdf)
      (footprints
        (fp SOT?23*))
      (fields
        (field (name Reference) Q)
        (field (name Value) BSS138)
        (field (name Footprint) Package_TO_SOT_SMD:SOT-23))
      (pins
        (pin (num 1) (name G) (type input))
        (pin (num 2) (name S) (type passive))
        (pin (num 3) (name D) (type passive))))
    (libpart (lib "ePolo_Charger_new4_(1)-eagle-import") (part WIREPAD3,81_1,4)
      (fields
        (field (name Reference) PAD)
        (field (name Value) WIREPAD3,81_1,4))
      (pins
        (pin (num 1) (name P) (type passive)))))
  (libraries
    (library (logical Connector_Generic)
      (uri D:\Programme\KiCad\share\kicad\library/Connector_Generic.lib))
    (library (logical Device)
      (uri D:\Programme\KiCad\share\kicad\library/Device.lib))
    (library (logical Diode)
      (uri D:\Programme\KiCad\share\kicad\library/Diode.lib))
    (library (logical Epolo)
      (uri D:/Uni/ePolo/Charger_Electrics/Charger_V0.2/Epolo.lib))
    (library (logical Isolator)
      (uri D:\Programme\KiCad\share\kicad\library/Isolator.lib))
    (library (logical Potentiometer_Digital)
      (uri D:\Programme\KiCad\share\kicad\library/Potentiometer_Digital.lib))
    (library (logical Sensor_Current)
      (uri D:\Programme\KiCad\share\kicad\library/Sensor_Current.lib))
    (library (logical Transistor_FET)
      (uri D:\Programme\KiCad\share\kicad\library/Transistor_FET.lib))
    (library (logical "ePolo_Charger_new4_(1)-eagle-import")
      (uri "D:/Uni/ePolo/Charger_Electrics/KiCAD_old/Charger/ePolo_Charger_new4_(1)-eagle-import.lib")))
  (nets
    (net (code 1) (name "Net-(LD4-PotW1-Pad1)")
      (node (ref LD4-PotW1) (pin 1))
      (node (ref LD4_V--1) (pin 4)))
    (net (code 2) (name "Net-(LD4_V--1-Pad6)")
      (node (ref LD4_V--1) (pin 6)))
    (net (code 3) (name "Net-(LD4_V--1-Pad7)")
      (node (ref LD4_V--1) (pin 7)))
    (net (code 4) (name "Net-(LD2-PotW1-Pad1)")
      (node (ref LD2-PotW1) (pin 1))
      (node (ref LD2_V--1) (pin 4)))
    (net (code 5) (name "Net-(LD2_V--1-Pad6)")
      (node (ref LD2_V--1) (pin 6)))
    (net (code 6) (name "Net-(LD2_V--1-Pad7)")
      (node (ref LD2_V--1) (pin 7)))
    (net (code 7) (name "Net-(Q6-Pad1)")
      (node (ref STMPINS1) (pin 19))
      (node (ref Q6) (pin 1)))
    (net (code 8) (name "Net-(Q5-Pad1)")
      (node (ref STMPINS1) (pin 17))
      (node (ref Q5) (pin 1)))
    (net (code 9) (name "Net-(LD3-PotA1-Pad1)")
      (node (ref LD3-PotA1) (pin 1))
      (node (ref LD3_V--1) (pin 3)))
    (net (code 10) (name "Net-(LD1-PotA1-Pad1)")
      (node (ref LD1-PotA1) (pin 1))
      (node (ref LD1_V--1) (pin 3)))
    (net (code 11) (name "Net-(LD1_V--1-Pad6)")
      (node (ref LD1_V--1) (pin 6)))
    (net (code 12) (name "Net-(LD1_V--1-Pad7)")
      (node (ref LD1_V--1) (pin 7)))
    (net (code 13) (name "Net-(LD3-PotW1-Pad1)")
      (node (ref LD3_V--1) (pin 4))
      (node (ref LD3-PotW1) (pin 1)))
    (net (code 14) (name "Net-(LD3_V--1-Pad6)")
      (node (ref LD3_V--1) (pin 6)))
    (net (code 15) (name "Net-(LD3_V--1-Pad7)")
      (node (ref LD3_V--1) (pin 7)))
    (net (code 16) (name "Net-(I_PH1-Pad1)")
      (node (ref LD3_V--1) (pin 1))
      (node (ref I_PH2) (pin 1))
      (node (ref I_PH1) (pin 1))
      (node (ref LD2_V--1) (pin 1))
      (node (ref LD4_V--1) (pin 1))
      (node (ref LD1_V--1) (pin 1))
      (node (ref I_PH3) (pin 1))
      (node (ref STMPINS1) (pin 43)))
    (net (code 17) (name /PH3)
      (node (ref I_PH3) (pin 4))
      (node (ref PH3) (pin 1)))
    (net (code 18) (name "Net-(CP1-Pad1)")
      (node (ref D1) (pin 1))
      (node (ref CP1) (pin 1)))
    (net (code 19) (name /I_PH1)
      (node (ref STMPINS1) (pin 3))
      (node (ref I_PH1) (pin 3)))
    (net (code 20) (name /PH2)
      (node (ref I_PH2) (pin 4))
      (node (ref PH2) (pin 1)))
    (net (code 21) (name "Net-(D1-Pad2)")
      (node (ref D1) (pin 2))
      (node (ref R15) (pin 1))
      (node (ref R13) (pin 1)))
    (net (code 22) (name /PH1)
      (node (ref I_PH1) (pin 4))
      (node (ref PH1) (pin 1)))
    (net (code 23) (name "Net-(I_PH1-Pad2)")
      (node (ref STMPINS1) (pin 44))
      (node (ref OK1) (pin 3))
      (node (ref OK1) (pin 2))
      (node (ref I_PH3) (pin 2))
      (node (ref LD3_V--1) (pin 2))
      (node (ref LD4_V--1) (pin 2))
      (node (ref I_PH1) (pin 2))
      (node (ref LD2_V--1) (pin 2))
      (node (ref LD1_V--1) (pin 2))
      (node (ref I_PH2) (pin 2)))
    (net (code 24) (name "Net-(LD2_V--1-Pad5)")
      (node (ref STMPINS2) (pin 36))
      (node (ref LD2_V--1) (pin 5)))
    (net (code 25) (name "Net-(LD1_V--1-Pad5)")
      (node (ref STMPINS2) (pin 34))
      (node (ref LD1_V--1) (pin 5)))
    (net (code 26) (name "Net-(LD3_V--1-Pad5)")
      (node (ref LD3_V--1) (pin 5))
      (node (ref STMPINS2) (pin 32)))
    (net (code 27) (name "Net-(STMPINS1-Pad37)")
      (node (ref STMPINS1) (pin 37)))
    (net (code 28) (name "Net-(STMPINS1-Pad38)")
      (node (ref STMPINS1) (pin 38)))
    (net (code 29) (name "Net-(STMPINS1-Pad39)")
      (node (ref STMPINS1) (pin 39)))
    (net (code 30) (name /I_PH2)
      (node (ref STMPINS1) (pin 4))
      (node (ref I_PH2) (pin 3)))
    (net (code 31) (name "Net-(STMPINS1-Pad40)")
      (node (ref STMPINS1) (pin 40)))
    (net (code 32) (name "Net-(STMPINS1-Pad41)")
      (node (ref STMPINS1) (pin 41)))
    (net (code 33) (name "Net-(STMPINS1-Pad42)")
      (node (ref STMPINS1) (pin 42)))
    (net (code 34) (name "Net-(CAR12V1-Pad1)")
      (node (ref CAR12V1) (pin 1))
      (node (ref PH3-LD3) (pin 0))
      (node (ref PH2-LD3) (pin 0))
      (node (ref PH3-LD4) (pin 0))
      (node (ref PH1-LD1) (pin 0))
      (node (ref PH1-LD2) (pin 0))
      (node (ref PH2-LD2) (pin 0)))
    (net (code 35) (name "Net-(STMPINS1-Pad5)")
      (node (ref STMPINS1) (pin 5)))
    (net (code 36) (name /I_PH3)
      (node (ref I_PH3) (pin 3))
      (node (ref STMPINS1) (pin 6)))
    (net (code 37) (name "Net-(STMPINS1-Pad7)")
      (node (ref STMPINS1) (pin 7)))
    (net (code 38) (name "Net-(STMPINS1-Pad8)")
      (node (ref STMPINS1) (pin 8)))
    (net (code 39) (name "Net-(STMPINS1-Pad9)")
      (node (ref STMPINS1) (pin 9)))
    (net (code 40) (name "Net-(LD4_V--1-Pad5)")
      (node (ref STMPINS2) (pin 38))
      (node (ref LD4_V--1) (pin 5)))
    (net (code 41) (name "Net-(PH2-LD3-Pad1)")
      (node (ref Q4) (pin 3))
      (node (ref PH2-LD3) (pin 1)))
    (net (code 42) (name /LD3)
      (node (ref PH3-LD3) (pin 2))
      (node (ref PH2-LD3) (pin 8))
      (node (ref PH2-LD3) (pin 4))
      (node (ref PH3-LD3) (pin 6))
      (node (ref LD3) (pin 1)))
    (net (code 43) (name /IPH3)
      (node (ref I_PH3) (pin 5))
      (node (ref PH3-LD4) (pin 8))
      (node (ref PH3-LD4) (pin 2))
      (node (ref PH3-LD3) (pin 8))
      (node (ref PH3-LD3) (pin 4)))
    (net (code 44) (name /LD4)
      (node (ref PH3-LD4) (pin 6))
      (node (ref LD4) (pin 1))
      (node (ref PH3-LD4) (pin 4)))
    (net (code 45) (name "Net-(LD1-Pad1)")
      (node (ref LD1) (pin 1))
      (node (ref PH1-LD1) (pin 4))
      (node (ref PH1-LD1) (pin 6)))
    (net (code 46) (name "Net-(STMPINS1-Pad36)")
      (node (ref STMPINS1) (pin 36)))
    (net (code 47) (name /IPH1)
      (node (ref I_PH1) (pin 5))
      (node (ref PH1-LD1) (pin 2))
      (node (ref PH1-LD1) (pin 8))
      (node (ref PH1-LD2) (pin 2))
      (node (ref PH1-LD2) (pin 6)))
    (net (code 48) (name /IPH2)
      (node (ref PH2-LD3) (pin 2))
      (node (ref PH2-LD3) (pin 6))
      (node (ref PH2-LD2) (pin 8))
      (node (ref PH2-LD2) (pin 4))
      (node (ref I_PH2) (pin 5)))
    (net (code 49) (name /LD2)
      (node (ref LD2) (pin 1))
      (node (ref PH2-LD2) (pin 6))
      (node (ref PH2-LD2) (pin 2))
      (node (ref PH1-LD2) (pin 8))
      (node (ref PH1-LD2) (pin 4)))
    (net (code 50) (name "Net-(LD2_V--1-Pad8)")
      (node (ref STMPINS2) (pin 41))
      (node (ref LD2_V--1) (pin 8)))
    (net (code 51) (name "Net-(LD1-PotW1-Pad1)")
      (node (ref LD1_V--1) (pin 4))
      (node (ref LD1-PotW1) (pin 1)))
    (net (code 52) (name "Net-(LD4_V--1-Pad8)")
      (node (ref LD4_V--1) (pin 8))
      (node (ref STMPINS2) (pin 39)))
    (net (code 53) (name "Net-(LD1_V--1-Pad8)")
      (node (ref LD1_V--1) (pin 8))
      (node (ref STMPINS2) (pin 42)))
    (net (code 54) (name "Net-(LD3_V--1-Pad8)")
      (node (ref STMPINS2) (pin 40))
      (node (ref LD3_V--1) (pin 8)))
    (net (code 55) (name "Net-(LD4-PotA1-Pad1)")
      (node (ref LD4-PotA1) (pin 1))
      (node (ref LD4_V--1) (pin 3)))
    (net (code 56) (name "Net-(LD2-PotA1-Pad1)")
      (node (ref LD2_V--1) (pin 3))
      (node (ref LD2-PotA1) (pin 1)))
    (net (code 57) (name "Net-(STMPINS1-Pad28)")
      (node (ref STMPINS1) (pin 28)))
    (net (code 58) (name "Net-(STMPINS1-Pad22)")
      (node (ref STMPINS1) (pin 22)))
    (net (code 59) (name "Net-(STMPINS1-Pad24)")
      (node (ref STMPINS1) (pin 24)))
    (net (code 60) (name "Net-(STMPINS1-Pad25)")
      (node (ref STMPINS1) (pin 25)))
    (net (code 61) (name "Net-(STMPINS1-Pad26)")
      (node (ref STMPINS1) (pin 26)))
    (net (code 62) (name "Net-(STMPINS1-Pad27)")
      (node (ref STMPINS1) (pin 27)))
    (net (code 63) (name "Net-(STMPINS1-Pad2)")
      (node (ref STMPINS1) (pin 2)))
    (net (code 64) (name "Net-(STMPINS1-Pad29)")
      (node (ref STMPINS1) (pin 29)))
    (net (code 65) (name "Net-(STMPINS1-Pad30)")
      (node (ref STMPINS1) (pin 30)))
    (net (code 66) (name "Net-(STMPINS1-Pad31)")
      (node (ref STMPINS1) (pin 31)))
    (net (code 67) (name "Net-(STMPINS1-Pad32)")
      (node (ref STMPINS1) (pin 32)))
    (net (code 68) (name "Net-(STMPINS1-Pad33)")
      (node (ref STMPINS1) (pin 33)))
    (net (code 69) (name "Net-(STMPINS1-Pad34)")
      (node (ref STMPINS1) (pin 34)))
    (net (code 70) (name "Net-(STMPINS1-Pad35)")
      (node (ref STMPINS1) (pin 35)))
    (net (code 71) (name "Net-(STMPINS1-Pad12)")
      (node (ref STMPINS1) (pin 12)))
    (net (code 72) (name "Net-(STMPINS1-Pad1)")
      (node (ref STMPINS1) (pin 1)))
    (net (code 73) (name "Net-(STMPINS1-Pad10)")
      (node (ref STMPINS1) (pin 10)))
    (net (code 74) (name "Net-(STMPINS1-Pad11)")
      (node (ref STMPINS1) (pin 11)))
    (net (code 75) (name "Net-(STMPINS1-Pad13)")
      (node (ref STMPINS1) (pin 13)))
    (net (code 76) (name "Net-(STMPINS1-Pad14)")
      (node (ref STMPINS1) (pin 14)))
    (net (code 77) (name "Net-(Q3-Pad1)")
      (node (ref STMPINS1) (pin 16))
      (node (ref Q3) (pin 1)))
    (net (code 78) (name "Net-(OK1-Pad4)")
      (node (ref OK1) (pin 4))
      (node (ref R17) (pin 2)))
    (net (code 79) (name "Net-(OK1-Pad5)")
      (node (ref PE1) (pin 1))
      (node (ref R14) (pin 2))
      (node (ref OK1) (pin 8))
      (node (ref OK1) (pin 5)))
    (net (code 80) (name "Net-(OK1-Pad1)")
      (node (ref OK1) (pin 1))
      (node (ref R19) (pin 2)))
    (net (code 81) (name "Net-(OK1-Pad6)")
      (node (ref OK1) (pin 6))
      (node (ref R15) (pin 2)))
    (net (code 82) (name "Net-(OK1-Pad7)")
      (node (ref OK1) (pin 7))
      (node (ref R13) (pin 2)))
    (net (code 83) (name "Net-(PP1-Pad1)")
      (node (ref R14) (pin 1))
      (node (ref PP1) (pin 1)))
    (net (code 84) (name "Net-(Q4-Pad1)")
      (node (ref Q4) (pin 1))
      (node (ref STMPINS1) (pin 15)))
    (net (code 85) (name "Net-(Q1-Pad1)")
      (node (ref Q1) (pin 1))
      (node (ref STMPINS1) (pin 20)))
    (net (code 86) (name "Net-(PH1-LD2-Pad1)")
      (node (ref Q2) (pin 3))
      (node (ref PH1-LD2) (pin 1)))
    (net (code 87) (name "Net-(Q2-Pad1)")
      (node (ref Q2) (pin 1))
      (node (ref STMPINS1) (pin 18)))
    (net (code 88) (name "Net-(N1-Pad1)")
      (node (ref N1) (pin 1)))
    (net (code 89) (name "Net-(STMPINS2-Pad6)")
      (node (ref STMPINS2) (pin 6)))
    (net (code 90) (name "Net-(STMPINS2-Pad4)")
      (node (ref STMPINS2) (pin 4)))
    (net (code 91) (name "Net-(STMPINS2-Pad43)")
      (node (ref STMPINS2) (pin 43)))
    (net (code 92) (name "Net-(STMPINS2-Pad44)")
      (node (ref STMPINS2) (pin 44)))
    (net (code 93) (name "Net-(STMPINS2-Pad5)")
      (node (ref STMPINS2) (pin 5)))
    (net (code 94) (name "Net-(R17-Pad1)")
      (node (ref STMPINS1) (pin 23))
      (node (ref R17) (pin 1)))
    (net (code 95) (name "Net-(STMPINS2-Pad7)")
      (node (ref STMPINS2) (pin 7)))
    (net (code 96) (name "Net-(STMPINS2-Pad8)")
      (node (ref STMPINS2) (pin 8)))
    (net (code 97) (name "Net-(STMPINS2-Pad9)")
      (node (ref STMPINS2) (pin 9)))
    (net (code 98) (name "Net-(PH3-LD4-Pad1)")
      (node (ref PH3-LD4) (pin 1))
      (node (ref Q6) (pin 3)))
    (net (code 99) (name "Net-(PH2-LD2-Pad1)")
      (node (ref Q3) (pin 3))
      (node (ref PH2-LD2) (pin 1)))
    (net (code 100) (name "Net-(PH3-LD3-Pad1)")
      (node (ref Q5) (pin 3))
      (node (ref PH3-LD3) (pin 1)))
    (net (code 101) (name "Net-(R19-Pad1)")
      (node (ref STMPINS1) (pin 21))
      (node (ref R19) (pin 1)))
    (net (code 102) (name "Net-(PH1-LD1-Pad1)")
      (node (ref PH1-LD1) (pin 1))
      (node (ref Q1) (pin 3)))
    (net (code 103) (name "Net-(CARGND1-Pad1)")
      (node (ref Q3) (pin 2))
      (node (ref CARGND1) (pin 1))
      (node (ref Q2) (pin 2))
      (node (ref Q1) (pin 2))
      (node (ref Q5) (pin 2))
      (node (ref Q4) (pin 2))
      (node (ref Q6) (pin 2)))
    (net (code 104) (name "Net-(STMPINS2-Pad3)")
      (node (ref STMPINS2) (pin 3)))
    (net (code 105) (name "Net-(STMPINS2-Pad22)")
      (node (ref STMPINS2) (pin 22)))
    (net (code 106) (name "Net-(STMPINS2-Pad23)")
      (node (ref STMPINS2) (pin 23)))
    (net (code 107) (name "Net-(STMPINS2-Pad24)")
      (node (ref STMPINS2) (pin 24)))
    (net (code 108) (name "Net-(STMPINS2-Pad25)")
      (node (ref STMPINS2) (pin 25)))
    (net (code 109) (name "Net-(STMPINS2-Pad26)")
      (node (ref STMPINS2) (pin 26)))
    (net (code 110) (name "Net-(STMPINS2-Pad27)")
      (node (ref STMPINS2) (pin 27)))
    (net (code 111) (name "Net-(STMPINS2-Pad28)")
      (node (ref STMPINS2) (pin 28)))
    (net (code 112) (name "Net-(STMPINS2-Pad29)")
      (node (ref STMPINS2) (pin 29)))
    (net (code 113) (name "Net-(STMPINS2-Pad21)")
      (node (ref STMPINS2) (pin 21)))
    (net (code 114) (name "Net-(STMPINS2-Pad30)")
      (node (ref STMPINS2) (pin 30)))
    (net (code 115) (name "Net-(STMPINS2-Pad31)")
      (node (ref STMPINS2) (pin 31)))
    (net (code 116) (name "Net-(STMPINS2-Pad33)")
      (node (ref STMPINS2) (pin 33)))
    (net (code 117) (name "Net-(STMPINS2-Pad35)")
      (node (ref STMPINS2) (pin 35)))
    (net (code 118) (name "Net-(STMPINS2-Pad37)")
      (node (ref STMPINS2) (pin 37)))
    (net (code 119) (name "Net-(STMPINS2-Pad14)")
      (node (ref STMPINS2) (pin 14)))
    (net (code 120) (name "Net-(STMPINS2-Pad1)")
      (node (ref STMPINS2) (pin 1)))
    (net (code 121) (name "Net-(STMPINS2-Pad10)")
      (node (ref STMPINS2) (pin 10)))
    (net (code 122) (name "Net-(STMPINS2-Pad11)")
      (node (ref STMPINS2) (pin 11)))
    (net (code 123) (name "Net-(STMPINS2-Pad12)")
      (node (ref STMPINS2) (pin 12)))
    (net (code 124) (name "Net-(STMPINS2-Pad13)")
      (node (ref STMPINS2) (pin 13)))
    (net (code 125) (name "Net-(STMPINS2-Pad15)")
      (node (ref STMPINS2) (pin 15)))
    (net (code 126) (name "Net-(STMPINS2-Pad16)")
      (node (ref STMPINS2) (pin 16)))
    (net (code 127) (name "Net-(STMPINS2-Pad17)")
      (node (ref STMPINS2) (pin 17)))
    (net (code 128) (name "Net-(STMPINS2-Pad18)")
      (node (ref STMPINS2) (pin 18)))
    (net (code 129) (name "Net-(STMPINS2-Pad19)")
      (node (ref STMPINS2) (pin 19)))
    (net (code 130) (name "Net-(STMPINS2-Pad2)")
      (node (ref STMPINS2) (pin 2)))
    (net (code 131) (name "Net-(STMPINS2-Pad20)")
      (node (ref STMPINS2) (pin 20)))))