(module G7L-2A-P (layer F.Cu) (tedit 5D17910B)
  (fp_text reference U$6 (at 25.4 12.7) (layer F.SilkS)
    (effects (font (size 1.27 1.27) (thickness 0.15)))
  )
  (fp_text value OMRON_G7L-2A-P (at 25.4 17.78) (layer F.SilkS)
    (effects (font (size 1.27 1.27) (thickness 0.15)))
  )
  (fp_line (start 52.5 0) (end 0 0) (layer Dwgs.User) (width 0.127))
  (fp_line (start 52.5 35.5) (end 52.5 0) (layer Dwgs.User) (width 0.127))
  (fp_line (start 0 35.5) (end 52.5 35.5) (layer Dwgs.User) (width 0.127))
  (fp_line (start 0 0) (end 0 35.5) (layer Dwgs.User) (width 0.127))
  (pad 2 thru_hole oval (at 7.85 26.1) (size 8 4) (drill oval 3.6 1.2) (layers *.Cu *.Mask)
    (solder_mask_margin 0.1016))
  (pad 4 thru_hole oval (at 19.05 26.1) (size 8 4) (drill oval 3.6 1.2) (layers *.Cu *.Mask)
    (solder_mask_margin 0.1016))
  (pad 6 thru_hole oval (at 33.45 26.1) (size 8 4) (drill oval 3.6 1.2) (layers *.Cu *.Mask)
    (solder_mask_margin 0.1016))
  (pad 8 thru_hole oval (at 44.65 26.1) (size 8 4) (drill oval 3.6 1.2) (layers *.Cu *.Mask)
    (solder_mask_margin 0.1016))
  (pad 1 thru_hole oval (at 44.65 8.4) (size 8 4) (drill oval 3.6 1.2) (layers *.Cu *.Mask)
    (solder_mask_margin 0.1016))
  (pad 0 thru_hole oval (at 7.85 8.4) (size 8 4) (drill oval 3.6 1.2) (layers *.Cu *.Mask)
    (solder_mask_margin 0.1016))
)
